ISO-10303-21;
HEADER;
FILE_DESCRIPTION (( 'STEP AP214' ),
    '1' );
FILE_NAME ('SUBCam.STEP',
    '2020-08-31T10:13:48',
    ( '' ),
    ( '' ),
    'SwSTEP 2.0',
    'SolidWorks 2018',
    '' );
FILE_SCHEMA (( 'AUTOMOTIVE_DESIGN' ));
ENDSEC;

DATA;
#1 = ADVANCED_FACE ( 'NONE', ( #788 ), #589, .F. ) ;
#2 = ORIENTED_EDGE ( 'NONE', *, *, #245, .T. ) ;
#3 = AXIS2_PLACEMENT_3D ( 'NONE', #943, #630, #838 ) ;
#4 = CARTESIAN_POINT ( 'NONE',  ( -68.44922212598976330, -21.31746863291782645, 37.20523010548632215 ) ) ;
#5 = ORIENTED_EDGE ( 'NONE', *, *, #14, .T. ) ;
#6 = COLOUR_RGB ( '',0.7921568627450980005, 0.8196078431372548767, 0.9333333333333333481 ) ;
#7 = CARTESIAN_POINT ( 'NONE',  ( -52.94922212598976330, 13.28253136708217674, 46.95523010548632215 ) ) ;
#8 = DIRECTION ( 'NONE',  ( 0.000000000000000000, 0.000000000000000000, -1.000000000000000000 ) ) ;
#9 = VECTOR ( 'NONE', #1108, 1000.000000000000000 ) ;
#10 = ORIENTED_EDGE ( 'NONE', *, *, #1278, .T. ) ;
#11 = CYLINDRICAL_SURFACE ( 'NONE', #1174, 2.000000000000001776 ) ;
#12 = LINE ( 'NONE', #999, #89 ) ;
#13 = CIRCLE ( 'NONE', #320, 5.999999999999998224 ) ;
#14 = EDGE_CURVE ( 'NONE', #1101, #317, #1022, .T. ) ;
#15 = CARTESIAN_POINT ( 'NONE',  ( -51.69922212598976330, -4.267468632917822191, 13.40523010548631788 ) ) ;
#16 = ORIENTED_EDGE ( 'NONE', *, *, #129, .F. ) ;
#17 = DIRECTION ( 'NONE',  ( 0.000000000000000000, 0.000000000000000000, -1.000000000000000000 ) ) ;
#18 = DIRECTION ( 'NONE',  ( -0.000000000000000000, -0.000000000000000000, -1.000000000000000000 ) ) ;
#19 = EDGE_CURVE ( 'NONE', #114, #1032, #736, .T. ) ;
#20 = VERTEX_POINT ( 'NONE', #857 ) ;
#21 = ORIENTED_EDGE ( 'NONE', *, *, #834, .T. ) ;
#22 = AXIS2_PLACEMENT_3D ( 'NONE', #246, #351, #540 ) ;
#23 = SHAPE_DEFINITION_REPRESENTATION ( #417, #1134 ) ;
#24 = LINE ( 'NONE', #376, #1042 ) ;
#25 = FACE_OUTER_BOUND ( 'NONE', #817, .T. ) ;
#26 = LINE ( 'NONE', #394, #689 ) ;
#27 = CARTESIAN_POINT ( 'NONE',  ( -51.69922212598976330, -4.267468632917822191, 29.40523010548631788 ) ) ;
#28 = VECTOR ( 'NONE', #714, 1000.000000000000000 ) ;
#29 = EDGE_CURVE ( 'NONE', #20, #940, #347, .T. ) ;
#30 = ORIENTED_EDGE ( 'NONE', *, *, #433, .F. ) ;
#31 = ORIENTED_EDGE ( 'NONE', *, *, #488, .F. ) ;
#32 = ORIENTED_EDGE ( 'NONE', *, *, #799, .T. ) ;
#33 = CARTESIAN_POINT ( 'NONE',  ( -59.82422212598976330, -12.39246863291782219, 29.40523010548631788 ) ) ;
#34 = ORIENTED_EDGE ( 'NONE', *, *, #697, .T. ) ;
#35 = DIRECTION ( 'NONE',  ( 0.000000000000000000, 0.000000000000000000, -1.000000000000000000 ) ) ;
#36 = EDGE_CURVE ( 'NONE', #386, #205, #440, .T. ) ;
#37 = ORIENTED_EDGE ( 'NONE', *, *, #687, .F. ) ;
#38 = LINE ( 'NONE', #774, #82 ) ;
#39 = AXIS2_PLACEMENT_3D ( 'NONE', #970, #872, #178 ) ;
#40 = CARTESIAN_POINT ( 'NONE',  ( -43.69922212598977040, 14.03253136708217497, 46.95523010548632215 ) ) ;
#41 = CIRCLE ( 'NONE', #586, 2.000000000000001776 ) ;
#42 = CARTESIAN_POINT ( 'NONE',  ( -43.57422212598976330, -12.39246863291782219, 29.40523010548631788 ) ) ;
#43 = ORIENTED_EDGE ( 'NONE', *, *, #978, .T. ) ;
#44 = FACE_OUTER_BOUND ( 'NONE', #625, .T. ) ;
#45 = VECTOR ( 'NONE', #1272, 1000.000000000000000 ) ;
#46 = DIRECTION ( 'NONE',  ( 0.000000000000000000, 0.000000000000000000, -1.000000000000000000 ) ) ;
#47 = ADVANCED_FACE ( 'NONE', ( #248 ), #760, .F. ) ;
#48 = CARTESIAN_POINT ( 'NONE',  ( -59.82422212598976330, -4.267468632917821303, 13.40523010548631788 ) ) ;
#49 = AXIS2_PLACEMENT_3D ( 'NONE', #801, #699, #297 ) ;
#50 = ORIENTED_EDGE ( 'NONE', *, *, #881, .F. ) ;
#51 = VERTEX_POINT ( 'NONE', #745 ) ;
#52 = DIRECTION ( 'NONE',  ( -1.000000000000000000, 0.000000000000000000, -0.000000000000000000 ) ) ;
#53 = DIRECTION ( 'NONE',  ( 1.000000000000000000, 0.000000000000000000, -0.000000000000000000 ) ) ;
#54 = VERTEX_POINT ( 'NONE', #462 ) ;
#55 = CARTESIAN_POINT ( 'NONE',  ( -43.57422212598976330, 3.857531367082177809, 37.20523010548632215 ) ) ;
#56 = CYLINDRICAL_SURFACE ( 'NONE', #1235, 1.050000000000009148 ) ;
#57 = DIRECTION ( 'NONE',  ( 0.000000000000000000, 0.000000000000000000, -1.000000000000000000 ) ) ;
#58 = FILL_AREA_STYLE ('',( #566 ) ) ;
#59 = FACE_OUTER_BOUND ( 'NONE', #775, .T. ) ;
#60 = ORIENTED_EDGE ( 'NONE', *, *, #309, .T. ) ;
#61 = EDGE_CURVE ( 'NONE', #335, #288, #986, .T. ) ;
#62 = DIRECTION ( 'NONE',  ( 1.000000000000000000, 0.000000000000000000, 0.000000000000000000 ) ) ;
#63 = ORIENTED_EDGE ( 'NONE', *, *, #581, .T. ) ;
#64 = CARTESIAN_POINT ( 'NONE',  ( -32.69922212598977040, -21.26746863291782219, 40.80523010548631646 ) ) ;
#65 = ORIENTED_EDGE ( 'NONE', *, *, #1019, .F. ) ;
#66 = DIRECTION ( 'NONE',  ( 0.000000000000000000, 0.000000000000000000, -1.000000000000000000 ) ) ;
#67 = AXIS2_PLACEMENT_3D ( 'NONE', #526, #734, #231 ) ;
#68 = FACE_OUTER_BOUND ( 'NONE', #650, .T. ) ;
#69 = ORIENTED_EDGE ( 'NONE', *, *, #177, .T. ) ;
#70 =( LENGTH_UNIT ( ) NAMED_UNIT ( * ) SI_UNIT ( .MILLI., .METRE. ) );
#71 = LINE ( 'NONE', #619, #1109 ) ;
#72 = VECTOR ( 'NONE', #392, 1000.000000000000000 ) ;
#73 = ORIENTED_EDGE ( 'NONE', *, *, #245, .F. ) ;
#74 = DIRECTION ( 'NONE',  ( -1.000000000000000000, 0.000000000000000000, -0.000000000000000000 ) ) ;
#75 =( NAMED_UNIT ( * ) SI_UNIT ( $, .STERADIAN. ) SOLID_ANGLE_UNIT ( ) );
#76 = ORIENTED_EDGE ( 'NONE', *, *, #101, .T. ) ;
#77 = AXIS2_PLACEMENT_3D ( 'NONE', #552, #243, #74 ) ;
#78 = FILL_AREA_STYLE ('',( #272 ) ) ;
#79 = ADVANCED_FACE ( 'NONE', ( #1037 ), #461, .F. ) ;
#80 = VERTEX_POINT ( 'NONE', #960 ) ;
#81 = ORIENTED_EDGE ( 'NONE', *, *, #220, .T. ) ;
#82 = VECTOR ( 'NONE', #974, 1000.000000000000000 ) ;
#83 = EDGE_CURVE ( 'NONE', #839, #54, #380, .T. ) ;
#84 = LINE ( 'NONE', #121, #1266 ) ;
#85 = CARTESIAN_POINT ( 'NONE',  ( -53.69922212598976330, 14.03253136708217497, 46.95523010548632215 ) ) ;
#86 = VERTEX_POINT ( 'NONE', #954 ) ;
#87 = CIRCLE ( 'NONE', #901, 2.000000000000001776 ) ;
#88 = CARTESIAN_POINT ( 'NONE',  ( -53.69922212598976330, 9.332531367082173901, 46.95523010548632215 ) ) ;
#89 = VECTOR ( 'NONE', #1287, 1000.000000000000000 ) ;
#90 = AXIS2_PLACEMENT_3D ( 'NONE', #765, #1254, #1162 ) ;
#91 = VECTOR ( 'NONE', #105, 1000.000000000000000 ) ;
#92 = VECTOR ( 'NONE', #1292, 1000.000000000000000 ) ;
#93 = ORIENTED_EDGE ( 'NONE', *, *, #950, .F. ) ;
#94 = ADVANCED_FACE ( 'NONE', ( #408 ), #1147, .F. ) ;
#95 = EDGE_CURVE ( 'NONE', #134, #1101, #821, .T. ) ;
#96 = CARTESIAN_POINT ( 'NONE',  ( -68.44922212598976330, -21.31746863291782645, 40.80523010548631646 ) ) ;
#97 = ORIENTED_EDGE ( 'NONE', *, *, #1170, .T. ) ;
#98 = DIRECTION ( 'NONE',  ( -1.000000000000000000, -0.000000000000000000, -0.000000000000000000 ) ) ;
#99 = CARTESIAN_POINT ( 'NONE',  ( -45.69922212598976330, -4.267468632917821303, 14.40523010548631966 ) ) ;
#100 = CYLINDRICAL_SURFACE ( 'NONE', #476, 2.000000000000001776 ) ;
#101 = EDGE_CURVE ( 'NONE', #169, #207, #407, .T. ) ;
#102 = CARTESIAN_POINT ( 'NONE',  ( -34.94922212598976330, 12.78253136708217319, 37.20523010548632215 ) ) ;
#103 = CIRCLE ( 'NONE', #247, 1.050000000000009148 ) ;
#104 = CIRCLE ( 'NONE', #716, 2.000000000000001776 ) ;
#105 = DIRECTION ( 'NONE',  ( -0.000000000000000000, -0.000000000000000000, -1.000000000000000000 ) ) ;
#106 = LINE ( 'NONE', #877, #364 ) ;
#107 = CARTESIAN_POINT ( 'NONE',  ( -53.69922212598976330, 9.332531367082173901, 40.80523010548631646 ) ) ;
#108 = ORIENTED_EDGE ( 'NONE', *, *, #929, .F. ) ;
#109 = VERTEX_POINT ( 'NONE', #1068 ) ;
#110 = CARTESIAN_POINT ( 'NONE',  ( -69.49922212598977467, -21.31746863291782645, 40.80523010548631646 ) ) ;
#111 = AXIS2_PLACEMENT_3D ( 'NONE', #820, #1193, #724 ) ;
#112 = CARTESIAN_POINT ( 'NONE',  ( -34.94922212598976330, 12.78253136708217319, 37.20523010548632215 ) ) ;
#113 = ORIENTED_EDGE ( 'NONE', *, *, #1046, .F. ) ;
#114 = VERTEX_POINT ( 'NONE', #356 ) ;
#115 = DIRECTION ( 'NONE',  ( -0.000000000000000000, -0.000000000000000000, -1.000000000000000000 ) ) ;
#116 = CARTESIAN_POINT ( 'NONE',  ( -34.94922212598976330, -21.31746863291782645, 40.80523010548631646 ) ) ;
#117 = LINE ( 'NONE', #1126, #750 ) ;
#118 = VECTOR ( 'NONE', #848, 1000.000000000000000 ) ;
#119 = LINE ( 'NONE', #500, #228 ) ;
#120 = CYLINDRICAL_SURFACE ( 'NONE', #387, 2.000000000000001776 ) ;
#121 = CARTESIAN_POINT ( 'NONE',  ( -43.57422212598976330, 3.857531367082177809, 37.20523010548632215 ) ) ;
#122 = CARTESIAN_POINT ( 'NONE',  ( -70.69922212598976330, 14.73253136708217426, 37.20523010548632215 ) ) ;
#123 = ORIENTED_EDGE ( 'NONE', *, *, #1233, .F. ) ;
#124 = ORIENTED_EDGE ( 'NONE', *, *, #914, .F. ) ;
#125 = DIRECTION ( 'NONE',  ( -1.000000000000000000, 0.000000000000000000, 0.000000000000000000 ) ) ;
#126 = ORIENTED_EDGE ( 'NONE', *, *, #687, .T. ) ;
#127 = DIRECTION ( 'NONE',  ( 1.000000000000000000, 0.000000000000000000, 0.000000000000000000 ) ) ;
#128 = ORIENTED_EDGE ( 'NONE', *, *, #277, .T. ) ;
#129 = EDGE_CURVE ( 'NONE', #1115, #134, #1211, .T. ) ;
#130 = ORIENTED_EDGE ( 'NONE', *, *, #664, .T. ) ;
#131 = CARTESIAN_POINT ( 'NONE',  ( -59.82422212598976330, -12.39246863291782219, 29.40523010548631788 ) ) ;
#132 = AXIS2_PLACEMENT_3D ( 'NONE', #1137, #1027, #551 ) ;
#133 = DIRECTION ( 'NONE',  ( -0.000000000000000000, -0.000000000000000000, 1.000000000000000000 ) ) ;
#134 = VERTEX_POINT ( 'NONE', #1262 ) ;
#135 = VECTOR ( 'NONE', #768, 1000.000000000000000 ) ;
#136 = DIRECTION ( 'NONE',  ( 1.000000000000000000, -0.000000000000000000, -0.000000000000000000 ) ) ;
#137 = CARTESIAN_POINT ( 'NONE',  ( -68.44922212598976330, 12.78253136708217319, 40.80523010548631646 ) ) ;
#138 = FACE_OUTER_BOUND ( 'NONE', #427, .T. ) ;
#139 = LINE ( 'NONE', #492, #363 ) ;
#140 = AXIS2_PLACEMENT_3D ( 'NONE', #627, #1038, #436 ) ;
#141 = CARTESIAN_POINT ( 'NONE',  ( -59.82422212598976330, 3.857531367082177809, 29.40523010548631788 ) ) ;
#142 = EDGE_LOOP ( 'NONE', ( #172, #43 ) ) ;
#143 = VERTEX_POINT ( 'NONE', #1165 ) ;
#144 = DIRECTION ( 'NONE',  ( -1.000000000000000000, 0.000000000000000000, 0.000000000000000000 ) ) ;
#145 = PLANE ( 'NONE',  #39 ) ;
#146 = EDGE_LOOP ( 'NONE', ( #501, #31, #219, #791 ) ) ;
#147 = ORIENTED_EDGE ( 'NONE', *, *, #402, .T. ) ;
#148 = EDGE_CURVE ( 'NONE', #680, #839, #709, .T. ) ;
#149 = ORIENTED_EDGE ( 'NONE', *, *, #433, .T. ) ;
#150 = CARTESIAN_POINT ( 'NONE',  ( -69.49922212598977467, -21.31746863291782645, 40.80523010548631646 ) ) ;
#151 = ADVANCED_FACE ( 'NONE', ( #891 ), #693, .T. ) ;
#152 = LINE ( 'NONE', #569, #263 ) ;
#153 = DIRECTION ( 'NONE',  ( 0.000000000000000000, -0.000000000000000000, 1.000000000000000000 ) ) ;
#154 = DIRECTION ( 'NONE',  ( 0.000000000000000000, 0.000000000000000000, -1.000000000000000000 ) ) ;
#155 = CARTESIAN_POINT ( 'NONE',  ( -52.94922212598976330, 13.28253136708217674, 41.80523010548631646 ) ) ;
#156 = DIRECTION ( 'NONE',  ( -0.000000000000000000, -0.000000000000000000, -1.000000000000000000 ) ) ;
#157 = AXIS2_PLACEMENT_3D ( 'NONE', #96, #192, #1099 ) ;
#158 = DIRECTION ( 'NONE',  ( -0.000000000000000000, -1.000000000000000000, -0.000000000000000000 ) ) ;
#159 = DIRECTION ( 'NONE',  ( -1.000000000000000000, -0.000000000000000000, -0.000000000000000000 ) ) ;
#160 = EDGE_LOOP ( 'NONE', ( #306, #1010, #732, #63, #860, #1154, #913, #453 ) ) ;
#161 = SURFACE_SIDE_STYLE ('',( #677 ) ) ;
#162 = CARTESIAN_POINT ( 'NONE',  ( -51.69922212598976330, -4.267468632917822191, 13.40523010548631788 ) ) ;
#163 = VERTEX_POINT ( 'NONE', #573 ) ;
#164 = EDGE_CURVE ( 'NONE', #567, #893, #106, .T. ) ;
#165 = VECTOR ( 'NONE', #1084, 1000.000000000000000 ) ;
#166 = CARTESIAN_POINT ( 'NONE',  ( -34.69922212598977040, -21.26746863291782219, 40.80523010548631646 ) ) ;
#167 = ORIENTED_EDGE ( 'NONE', *, *, #978, .F. ) ;
#168 = DIRECTION ( 'NONE',  ( -0.000000000000000000, -0.000000000000000000, 1.000000000000000000 ) ) ;
#169 = VERTEX_POINT ( 'NONE', #882 ) ;
#170 = ADVANCED_FACE ( 'NONE', ( #1021 ), #471, .F. ) ;
#171 = ORIENTED_EDGE ( 'NONE', *, *, #164, .F. ) ;
#172 = ORIENTED_EDGE ( 'NONE', *, *, #1005, .T. ) ;
#173 = DIRECTION ( 'NONE',  ( -0.000000000000000000, -0.000000000000000000, 1.000000000000000000 ) ) ;
#174 = EDGE_LOOP ( 'NONE', ( #498, #553, #1088, #910 ) ) ;
#175 =( NAMED_UNIT ( * ) SI_UNIT ( $, .STERADIAN. ) SOLID_ANGLE_UNIT ( ) );
#176 = ORIENTED_EDGE ( 'NONE', *, *, #496, .F. ) ;
#177 = EDGE_CURVE ( 'NONE', #1113, #1258, #997, .T. ) ;
#178 = DIRECTION ( 'NONE',  ( 0.000000000000000000, -0.000000000000000000, 1.000000000000000000 ) ) ;
#179 = AXIS2_PLACEMENT_3D ( 'NONE', #204, #1014, #614 ) ;
#180 = CARTESIAN_POINT ( 'NONE',  ( -43.57422212598976330, -12.39246863291782219, 37.20523010548632215 ) ) ;
#181 = FACE_OUTER_BOUND ( 'NONE', #1074, .T. ) ;
#182 = CARTESIAN_POINT ( 'NONE',  ( -45.69922212598976330, -4.267468632917821303, 14.40523010548631966 ) ) ;
#183 = VERTEX_POINT ( 'NONE', #874 ) ;
#184 = ADVANCED_FACE ( 'NONE', ( #853 ), #1158, .F. ) ;
#185 = ORIENTED_EDGE ( 'NONE', *, *, #574, .F. ) ;
#186 = EDGE_CURVE ( 'NONE', #1045, #254, #935, .T. ) ;
#187 = DIRECTION ( 'NONE',  ( -1.000000000000000000, 0.000000000000000000, 0.000000000000000000 ) ) ;
#188 = ORIENTED_EDGE ( 'NONE', *, *, #906, .T. ) ;
#189 = AXIS2_PLACEMENT_3D ( 'NONE', #884, #692, #591 ) ;
#190 = ORIENTED_EDGE ( 'NONE', *, *, #919, .F. ) ;
#191 = DIRECTION ( 'NONE',  ( 0.000000000000000000, -0.000000000000000000, 1.000000000000000000 ) ) ;
#192 = DIRECTION ( 'NONE',  ( 0.000000000000000000, 0.000000000000000000, -1.000000000000000000 ) ) ;
#193 = ORIENTED_EDGE ( 'NONE', *, *, #721, .T. ) ;
#194 = EDGE_CURVE ( 'NONE', #1260, #991, #1123, .T. ) ;
#195 = DIRECTION ( 'NONE',  ( 1.000000000000000000, -0.000000000000000000, 0.000000000000000000 ) ) ;
#196 = DIRECTION ( 'NONE',  ( -0.000000000000000000, -1.000000000000000000, -0.000000000000000000 ) ) ;
#197 = AXIS2_PLACEMENT_3D ( 'NONE', #1106, #622, #931 ) ;
#198 = VECTOR ( 'NONE', #546, 1000.000000000000000 ) ;
#199 = CARTESIAN_POINT ( 'NONE',  ( -52.94922212598976330, 10.08253136708217212, 41.80523010548631646 ) ) ;
#200 = VECTOR ( 'NONE', #1229, 1000.000000000000000 ) ;
#201 = DIRECTION ( 'NONE',  ( -0.000000000000000000, -0.000000000000000000, -1.000000000000000000 ) ) ;
#202 = ORIENTED_EDGE ( 'NONE', *, *, #1046, .T. ) ;
#203 = AXIS2_PLACEMENT_3D ( 'NONE', #137, #843, #953 ) ;
#204 = CARTESIAN_POINT ( 'NONE',  ( -59.82422212598976330, -12.39246863291782219, 29.40523010548631788 ) ) ;
#205 = VERTEX_POINT ( 'NONE', #1064 ) ;
#206 = CARTESIAN_POINT ( 'NONE',  ( -68.69922212598976330, -23.26746863291782574, 37.20523010548632215 ) ) ;
#207 = VERTEX_POINT ( 'NONE', #64 ) ;
#208 = DIRECTION ( 'NONE',  ( -1.000000000000000000, 0.000000000000000000, 0.000000000000000000 ) ) ;
#209 = EDGE_CURVE ( 'NONE', #109, #533, #588, .T. ) ;
#210 = CARTESIAN_POINT ( 'NONE',  ( -59.82422212598976330, -12.39246863291782219, 29.40523010548631788 ) ) ;
#211 = LINE ( 'NONE', #225, #1047 ) ;
#212 = PLANE ( 'NONE',  #980 ) ;
#213 = LINE ( 'NONE', #684, #1239 ) ;
#214 = AXIS2_PLACEMENT_3D ( 'NONE', #1059, #859, #871 ) ;
#215 = VECTOR ( 'NONE', #778, 1000.000000000000000 ) ;
#216 = ORIENTED_EDGE ( 'NONE', *, *, #841, .T. ) ;
#217 = ORIENTED_EDGE ( 'NONE', *, *, #670, .T. ) ;
#218 = CARTESIAN_POINT ( 'NONE',  ( -34.69922212598977040, 14.73253136708217426, 37.20523010548632215 ) ) ;
#219 = ORIENTED_EDGE ( 'NONE', *, *, #1252, .F. ) ;
#220 = EDGE_CURVE ( 'NONE', #86, #205, #605, .T. ) ;
#221 = MANIFOLD_SOLID_BREP ( 'Stock-USBCamAssm-1', #756 ) ;
#222 = DIRECTION ( 'NONE',  ( -1.000000000000000000, -0.000000000000000000, -0.000000000000000000 ) ) ;
#223 = ORIENTED_EDGE ( 'NONE', *, *, #520, .F. ) ;
#224 = DIRECTION ( 'NONE',  ( -0.000000000000000000, -0.000000000000000000, 1.000000000000000000 ) ) ;
#225 = CARTESIAN_POINT ( 'NONE',  ( -43.57422212598976330, -12.39246863291782219, 29.40523010548631788 ) ) ;
#226 = ORIENTED_EDGE ( 'NONE', *, *, #664, .F. ) ;
#227 = VECTOR ( 'NONE', #222, 1000.000000000000000 ) ;
#228 = VECTOR ( 'NONE', #504, 1000.000000000000000 ) ;
#229 = FACE_BOUND ( 'NONE', #142, .T. ) ;
#230 = CARTESIAN_POINT ( 'NONE',  ( -51.69922212598976330, -4.267468632917822191, 14.40523010548631966 ) ) ;
#231 = DIRECTION ( 'NONE',  ( 0.000000000000000000, -0.000000000000000000, -1.000000000000000000 ) ) ;
#232 = DIRECTION ( 'NONE',  ( 0.000000000000000000, 0.000000000000000000, 1.000000000000000000 ) ) ;
#233 = ORIENTED_EDGE ( 'NONE', *, *, #61, .T. ) ;
#234 = CARTESIAN_POINT ( 'NONE',  ( -51.69922212598976330, -4.267468632917822191, 29.40523010548631788 ) ) ;
#235 = AXIS2_PLACEMENT_3D ( 'NONE', #556, #1242, #52 ) ;
#236 = ADVANCED_FACE ( 'NONE', ( #285 ), #1049, .F. ) ;
#237 = ORIENTED_EDGE ( 'NONE', *, *, #220, .F. ) ;
#238 = FACE_OUTER_BOUND ( 'NONE', #924, .T. ) ;
#239 = DIRECTION ( 'NONE',  ( 0.000000000000000000, 0.000000000000000000, 1.000000000000000000 ) ) ;
#240 = FACE_OUTER_BOUND ( 'NONE', #469, .T. ) ;
#241 = CARTESIAN_POINT ( 'NONE',  ( -43.57422212598976330, -12.39246863291782219, 29.40523010548631788 ) ) ;
#242 = LINE ( 'NONE', #1202, #930 ) ;
#243 = DIRECTION ( 'NONE',  ( 0.000000000000000000, 0.000000000000000000, -1.000000000000000000 ) ) ;
#244 = LINE ( 'NONE', #826, #752 ) ;
#245 = EDGE_CURVE ( 'NONE', #940, #533, #889, .T. ) ;
#246 = CARTESIAN_POINT ( 'NONE',  ( -51.69922212598976330, -4.267468632917822191, 14.40523010548631966 ) ) ;
#247 = AXIS2_PLACEMENT_3D ( 'NONE', #4, #411, #624 ) ;
#248 = FACE_OUTER_BOUND ( 'NONE', #1203, .T. ) ;
#249 = PLANE ( 'NONE',  #1151 ) ;
#250 = DIRECTION ( 'NONE',  ( -1.000000000000000000, 0.000000000000000000, 0.000000000000000000 ) ) ;
#251 = ORIENTED_EDGE ( 'NONE', *, *, #712, .F. ) ;
#252 = EDGE_LOOP ( 'NONE', ( #711, #369, #1218, #926 ) ) ;
#253 = DIRECTION ( 'NONE',  ( -0.000000000000000000, 0.000000000000000000, -1.000000000000000000 ) ) ;
#254 = VERTEX_POINT ( 'NONE', #1092 ) ;
#255 = CARTESIAN_POINT ( 'NONE',  ( -35.99922212598976756, 12.78253136708217319, 40.80523010548631646 ) ) ;
#256 = ADVANCED_FACE ( 'NONE', ( #1095 ), #604, .F. ) ;
#257 = DIRECTION ( 'NONE',  ( 1.000000000000000000, 0.000000000000000000, 0.000000000000000000 ) ) ;
#258 = VERTEX_POINT ( 'NONE', #600 ) ;
#259 = EDGE_CURVE ( 'NONE', #668, #422, #984, .T. ) ;
#260 = VERTEX_POINT ( 'NONE', #1000 ) ;
#261 = DIRECTION ( 'NONE',  ( -1.000000000000000000, 0.000000000000000000, 0.000000000000000000 ) ) ;
#262 = DIRECTION ( 'NONE',  ( -0.000000000000000000, -0.000000000000000000, 1.000000000000000000 ) ) ;
#263 = VECTOR ( 'NONE', #62, 1000.000000000000000 ) ;
#264 = CARTESIAN_POINT ( 'NONE',  ( -53.69922212598976330, 9.332531367082173901, 46.95523010548632215 ) ) ;
#265 = FACE_OUTER_BOUND ( 'NONE', #542, .T. ) ;
#266 = CARTESIAN_POINT ( 'NONE',  ( -35.99922212598976756, 12.78253136708217319, 37.20523010548632215 ) ) ;
#267 = FACE_OUTER_BOUND ( 'NONE', #558, .T. ) ;
#268 = EDGE_CURVE ( 'NONE', #183, #109, #547, .T. ) ;
#269 = AXIS2_PLACEMENT_3D ( 'NONE', #840, #224, #332 ) ;
#270 = ADVANCED_FACE ( 'NONE', ( #638 ), #302, .F. ) ;
#271 = VERTEX_POINT ( 'NONE', #1178 ) ;
#272 = FILL_AREA_STYLE_COLOUR ( '', #6 ) ;
#273 = ORIENTED_EDGE ( 'NONE', *, *, #194, .T. ) ;
#274 = ORIENTED_EDGE ( 'NONE', *, *, #941, .T. ) ;
#275 = DIRECTION ( 'NONE',  ( -0.000000000000000000, -0.000000000000000000, 1.000000000000000000 ) ) ;
#276 = ORIENTED_EDGE ( 'NONE', *, *, #177, .F. ) ;
#277 = EDGE_CURVE ( 'NONE', #524, #1116, #837, .T. ) ;
#278 =( NAMED_UNIT ( * ) PLANE_ANGLE_UNIT ( ) SI_UNIT ( $, .RADIAN. ) );
#279 = ORIENTED_EDGE ( 'NONE', *, *, #875, .T. ) ;
#280 = LINE ( 'NONE', #48, #1238 ) ;
#281 = DIRECTION ( 'NONE',  ( 1.000000000000000000, 0.000000000000000000, 0.000000000000000000 ) ) ;
#282 = VECTOR ( 'NONE', #795, 1000.000000000000000 ) ;
#283 = VECTOR ( 'NONE', #904, 1000.000000000000000 ) ;
#284 =( NAMED_UNIT ( * ) SI_UNIT ( $, .STERADIAN. ) SOLID_ANGLE_UNIT ( ) );
#285 = FACE_OUTER_BOUND ( 'NONE', #631, .T. ) ;
#286 = CARTESIAN_POINT ( 'NONE',  ( -68.69922212598976330, -23.26746863291782574, 40.80523010548631646 ) ) ;
#287 = EDGE_CURVE ( 'NONE', #317, #759, #406, .T. ) ;
#288 = VERTEX_POINT ( 'NONE', #590 ) ;
#289 = AXIS2_PLACEMENT_3D ( 'NONE', #230, #1223, #125 ) ;
#290 = APPLICATION_CONTEXT ( 'automotive_design' ) ;
#291 = ORIENTED_EDGE ( 'NONE', *, *, #1087, .F. ) ;
#292 = EDGE_LOOP ( 'NONE', ( #1263, #171, #728, #652 ) ) ;
#293 = ADVANCED_FACE ( 'NONE', ( #345 ), #585, .T. ) ;
#294 = ORIENTED_EDGE ( 'NONE', *, *, #1256, .T. ) ;
#295 = EDGE_CURVE ( 'NONE', #386, #86, #850, .T. ) ;
#296 = CARTESIAN_POINT ( 'NONE',  ( -67.39922212598975193, 12.78253136708217319, 37.20523010548632215 ) ) ;
#297 = DIRECTION ( 'NONE',  ( 0.000000000000000000, -0.000000000000000000, 1.000000000000000000 ) ) ;
#298 = FACE_OUTER_BOUND ( 'NONE', #713, .T. ) ;
#299 = CARTESIAN_POINT ( 'NONE',  ( -35.99922212598976756, -21.31746863291782645, 40.80523010548631646 ) ) ;
#300 = VECTOR ( 'NONE', #1023, 1000.000000000000000 ) ;
#301 = CIRCLE ( 'NONE', #557, 1.050000000000009148 ) ;
#302 = PLANE ( 'NONE',  #499 ) ;
#303 = PLANE ( 'NONE',  #975 ) ;
#304 = EDGE_CURVE ( 'NONE', #1116, #524, #378, .T. ) ;
#305 = DIRECTION ( 'NONE',  ( -1.000000000000000000, 0.000000000000000000, 0.000000000000000000 ) ) ;
#306 = ORIENTED_EDGE ( 'NONE', *, *, #964, .F. ) ;
#307 = DIRECTION ( 'NONE',  ( 1.000000000000000000, -0.000000000000000000, -0.000000000000000000 ) ) ;
#308 = ORIENTED_EDGE ( 'NONE', *, *, #148, .F. ) ;
#309 = EDGE_CURVE ( 'NONE', #1111, #647, #13, .T. ) ;
#310 = VECTOR ( 'NONE', #572, 1000.000000000000000 ) ;
#311 = DIRECTION ( 'NONE',  ( -1.000000000000000000, -0.000000000000000000, -0.000000000000000000 ) ) ;
#312 = LINE ( 'NONE', #33, #544 ) ;
#313 = EDGE_LOOP ( 'NONE', ( #1176, #1039 ) ) ;
#314 = CYLINDRICAL_SURFACE ( 'NONE', #700, 1.050000000000002265 ) ;
#315 = VECTOR ( 'NONE', #1289, 1000.000000000000000 ) ;
#316 = DIRECTION ( 'NONE',  ( -0.000000000000000000, -1.000000000000000000, -0.000000000000000000 ) ) ;
#317 = VERTEX_POINT ( 'NONE', #502 ) ;
#318 = CARTESIAN_POINT ( 'NONE',  ( -35.99922212598976756, -21.31746863291782645, 40.80523010548631646 ) ) ;
#319 = EDGE_CURVE ( 'NONE', #1258, #258, #213, .T. ) ;
#320 = AXIS2_PLACEMENT_3D ( 'NONE', #595, #688, #305 ) ;
#321 = DIRECTION ( 'NONE',  ( 0.000000000000000000, 0.000000000000000000, -1.000000000000000000 ) ) ;
#322 = AXIS2_PLACEMENT_3D ( 'NONE', #1167, #789, #776 ) ;
#323 = DIRECTION ( 'NONE',  ( -1.000000000000000000, 0.000000000000000000, 0.000000000000000000 ) ) ;
#324 = ORIENTED_EDGE ( 'NONE', *, *, #834, .F. ) ;
#325 = PLANE ( 'NONE',  #674 ) ;
#326 = EDGE_CURVE ( 'NONE', #1032, #386, #487, .T. ) ;
#327 = CIRCLE ( 'NONE', #140, 5.999999999999998224 ) ;
#328 = CIRCLE ( 'NONE', #596, 1.050000000000009148 ) ;
#329 = LINE ( 'NONE', #180, #803 ) ;
#330 = COLOUR_RGB ( '',0.7921568627450980005, 0.8196078431372548767, 0.9333333333333333481 ) ;
#331 = ORIENTED_EDGE ( 'NONE', *, *, #641, .T. ) ;
#332 = DIRECTION ( 'NONE',  ( -1.000000000000000000, 0.000000000000000000, 0.000000000000000000 ) ) ;
#333 = PLANE ( 'NONE',  #3 ) ;
#334 = EDGE_LOOP ( 'NONE', ( #1236, #30, #1139, #60 ) ) ;
#335 = VERTEX_POINT ( 'NONE', #182 ) ;
#336 = EDGE_CURVE ( 'NONE', #1166, #258, #570, .T. ) ;
#337 = CARTESIAN_POINT ( 'NONE',  ( -43.69922212598977040, 9.332531367082173901, 46.95523010548632215 ) ) ;
#338 = AXIS2_PLACEMENT_3D ( 'NONE', #1275, #1180, #894 ) ;
#339 = DIRECTION ( 'NONE',  ( -0.000000000000000000, -0.000000000000000000, -1.000000000000000000 ) ) ;
#340 = DIRECTION ( 'NONE',  ( -1.000000000000000000, 0.000000000000000000, 0.000000000000000000 ) ) ;
#341 = FACE_OUTER_BOUND ( 'NONE', #794, .T. ) ;
#342 = CYLINDRICAL_SURFACE ( 'NONE', #397, 1.050000000000009148 ) ;
#343 = AXIS2_PLACEMENT_3D ( 'NONE', #851, #156, #362 ) ;
#344 = PLANE ( 'NONE',  #132 ) ;
#345 = FACE_OUTER_BOUND ( 'NONE', #727, .T. ) ;
#346 = CARTESIAN_POINT ( 'NONE',  ( -44.44922212598976330, 10.08253136708217212, 41.80523010548631646 ) ) ;
#347 = LINE ( 'NONE', #646, #200 ) ;
#348 = ORIENTED_EDGE ( 'NONE', *, *, #1117, .F. ) ;
#349 = PLANE ( 'NONE',  #235 ) ;
#350 = ORIENTED_EDGE ( 'NONE', *, *, #326, .T. ) ;
#351 = DIRECTION ( 'NONE',  ( -0.000000000000000000, -0.000000000000000000, -1.000000000000000000 ) ) ;
#352 = DIRECTION ( 'NONE',  ( -1.000000000000000000, 0.000000000000000000, 0.000000000000000000 ) ) ;
#353 = AXIS2_PLACEMENT_3D ( 'NONE', #695, #191, #486 ) ;
#354 = CARTESIAN_POINT ( 'NONE',  ( -32.69922212598977040, -23.26746863291782574, 40.80523010548631646 ) ) ;
#355 = ORIENTED_EDGE ( 'NONE', *, *, #1212, .T. ) ;
#356 = CARTESIAN_POINT ( 'NONE',  ( -51.69922212598976330, -12.39246863291782219, 29.40523010548631788 ) ) ;
#357 = PRESENTATION_STYLE_ASSIGNMENT (( #992 ) ) ;
#358 = DIRECTION ( 'NONE',  ( -1.000000000000000000, 0.000000000000000000, 0.000000000000000000 ) ) ;
#359 = DIRECTION ( 'NONE',  ( -1.000000000000000000, 0.000000000000000000, 0.000000000000000000 ) ) ;
#360 = LINE ( 'NONE', #122, #227 ) ;
#361 = EDGE_CURVE ( 'NONE', #183, #940, #438, .T. ) ;
#362 = DIRECTION ( 'NONE',  ( -1.000000000000000000, 0.000000000000000000, 0.000000000000000000 ) ) ;
#363 = VECTOR ( 'NONE', #599, 1000.000000000000000 ) ;
#364 = VECTOR ( 'NONE', #275, 1000.000000000000000 ) ;
#365 = AXIS2_PLACEMENT_3D ( 'NONE', #478, #576, #66 ) ;
#366 = DIRECTION ( 'NONE',  ( 1.000000000000000000, 0.000000000000000000, 0.000000000000000000 ) ) ;
#367 = ADVANCED_FACE ( 'NONE', ( #735 ), #314, .F. ) ;
#368 = CARTESIAN_POINT ( 'NONE',  ( -68.44922212598976330, -21.31746863291782645, 40.80523010548631646 ) ) ;
#369 = ORIENTED_EDGE ( 'NONE', *, *, #863, .F. ) ;
#370 = DIRECTION ( 'NONE',  ( -0.000000000000000000, -0.000000000000000000, 1.000000000000000000 ) ) ;
#371 = ORIENTED_EDGE ( 'NONE', *, *, #852, .F. ) ;
#372 = DIRECTION ( 'NONE',  ( -0.000000000000000000, -1.000000000000000000, -0.000000000000000000 ) ) ;
#373 = EDGE_CURVE ( 'NONE', #880, #886, #1183, .T. ) ;
#374 = VERTEX_POINT ( 'NONE', #1017 ) ;
#375 = DIRECTION ( 'NONE',  ( -0.000000000000000000, -0.000000000000000000, 1.000000000000000000 ) ) ;
#376 = CARTESIAN_POINT ( 'NONE',  ( -59.82422212598976330, -12.39246863291782219, 37.20523010548632215 ) ) ;
#377 = VECTOR ( 'NONE', #159, 1000.000000000000000 ) ;
#378 = CIRCLE ( 'NONE', #1290, 1.050000000000009148 ) ;
#379 = EDGE_CURVE ( 'NONE', #533, #80, #1194, .T. ) ;
#380 = CIRCLE ( 'NONE', #722, 1.050000000000009148 ) ;
#381 = ORIENTED_EDGE ( 'NONE', *, *, #36, .F. ) ;
#382 = ORIENTED_EDGE ( 'NONE', *, *, #950, .T. ) ;
#383 = ADVANCED_FACE ( 'NONE', ( #138 ), #120, .T. ) ;
#384 = ORIENTED_EDGE ( 'NONE', *, *, #782, .F. ) ;
#385 = EDGE_CURVE ( 'NONE', #335, #647, #934, .T. ) ;
#386 = VERTEX_POINT ( 'NONE', #519 ) ;
#387 = AXIS2_PLACEMENT_3D ( 'NONE', #1107, #509, #708 ) ;
#388 = FACE_OUTER_BOUND ( 'NONE', #608, .T. ) ;
#389 = PRODUCT_DEFINITION ( 'UNKNOWN', '', #681, #777 ) ;
#390 = CARTESIAN_POINT ( 'NONE',  ( -70.69922212598976330, -21.26746863291782219, 37.20523010548632215 ) ) ;
#391 = FACE_BOUND ( 'NONE', #398, .T. ) ;
#392 = DIRECTION ( 'NONE',  ( -0.000000000000000000, -1.000000000000000000, -0.000000000000000000 ) ) ;
#393 = VECTOR ( 'NONE', #1195, 1000.000000000000000 ) ;
#394 = CARTESIAN_POINT ( 'NONE',  ( -32.69922212598977040, -23.26746863291782574, 37.20523010548632215 ) ) ;
#395 = DIRECTION ( 'NONE',  ( 0.000000000000000000, 0.000000000000000000, -1.000000000000000000 ) ) ;
#396 = EDGE_LOOP ( 'NONE', ( #37, #1189 ) ) ;
#397 = AXIS2_PLACEMENT_3D ( 'NONE', #862, #966, #250 ) ;
#398 = EDGE_LOOP ( 'NONE', ( #73, #1221, #1201, #413 ) ) ;
#399 = DIRECTION ( 'NONE',  ( -0.000000000000000000, 0.000000000000000000, -1.000000000000000000 ) ) ;
#400 = DIRECTION ( 'NONE',  ( 0.000000000000000000, -0.000000000000000000, -1.000000000000000000 ) ) ;
#401 = ORIENTED_EDGE ( 'NONE', *, *, #555, .F. ) ;
#402 = EDGE_CURVE ( 'NONE', #271, #1102, #103, .T. ) ;
#403 = AXIS2_PLACEMENT_3D ( 'NONE', #830, #812, #1016 ) ;
#404 = LINE ( 'NONE', #917, #9 ) ;
#405 = CARTESIAN_POINT ( 'NONE',  ( -32.69922212598977040, -21.26746863291782219, 37.20523010548632215 ) ) ;
#406 = LINE ( 'NONE', #1085, #1270 ) ;
#407 = CIRCLE ( 'NONE', #1082, 2.000000000000001776 ) ;
#408 = FACE_OUTER_BOUND ( 'NONE', #1246, .T. ) ;
#409 = DIRECTION ( 'NONE',  ( 1.000000000000000000, 0.000000000000000000, 0.000000000000000000 ) ) ;
#410 = STYLED_ITEM ( 'NONE', ( #905 ), #221 ) ;
#411 = DIRECTION ( 'NONE',  ( 0.000000000000000000, 0.000000000000000000, -1.000000000000000000 ) ) ;
#412 = ORIENTED_EDGE ( 'NONE', *, *, #1212, .F. ) ;
#413 = ORIENTED_EDGE ( 'NONE', *, *, #379, .F. ) ;
#414 = DIRECTION ( 'NONE',  ( -0.000000000000000000, -0.000000000000000000, -1.000000000000000000 ) ) ;
#415 = DIRECTION ( 'NONE',  ( -0.000000000000000000, -0.000000000000000000, -1.000000000000000000 ) ) ;
#416 = ORIENTED_EDGE ( 'NONE', *, *, #426, .F. ) ;
#417 = PRODUCT_DEFINITION_SHAPE ( 'NONE', 'NONE',  #389 ) ;
#418 = EDGE_CURVE ( 'NONE', #80, #20, #802, .T. ) ;
#419 = LINE ( 'NONE', #241, #769 ) ;
#420 = CARTESIAN_POINT ( 'NONE',  ( -34.94922212598976330, 12.78253136708217319, 40.80523010548631646 ) ) ;
#421 = FACE_OUTER_BOUND ( 'NONE', #512, .T. ) ;
#422 = VERTEX_POINT ( 'NONE', #514 ) ;
#423 = DIRECTION ( 'NONE',  ( -1.000000000000000000, 0.000000000000000000, 0.000000000000000000 ) ) ;
#424 = DIRECTION ( 'NONE',  ( 0.000000000000000000, 0.000000000000000000, -1.000000000000000000 ) ) ;
#425 = ORIENTED_EDGE ( 'NONE', *, *, #444, .T. ) ;
#426 = EDGE_CURVE ( 'NONE', #1040, #991, #71, .T. ) ;
#427 = EDGE_LOOP ( 'NONE', ( #291, #348, #185, #1078 ) ) ;
#428 = AXIS2_PLACEMENT_3D ( 'NONE', #1232, #451, #1053 ) ;
#429 = ORIENTED_EDGE ( 'NONE', *, *, #919, .T. ) ;
#430 = DIRECTION ( 'NONE',  ( -0.000000000000000000, -0.000000000000000000, -1.000000000000000000 ) ) ;
#431 = ORIENTED_EDGE ( 'NONE', *, *, #1097, .F. ) ;
#432 = CARTESIAN_POINT ( 'NONE',  ( -34.69922212598977040, 12.73253136708217248, 40.80523010548631646 ) ) ;
#433 = EDGE_CURVE ( 'NONE', #288, #335, #887, .T. ) ;
#434 = CARTESIAN_POINT ( 'NONE',  ( -32.69922212598977040, 12.73253136708217248, 37.20523010548632215 ) ) ;
#435 = LINE ( 'NONE', #1192, #165 ) ;
#436 = DIRECTION ( 'NONE',  ( -1.000000000000000000, 0.000000000000000000, 0.000000000000000000 ) ) ;
#437 = LINE ( 'NONE', #1182, #92 ) ;
#438 = LINE ( 'NONE', #809, #91 ) ;
#439 = VECTOR ( 'NONE', #372, 1000.000000000000000 ) ;
#440 = CIRCLE ( 'NONE', #1001, 8.125000000000000000 ) ;
#441 = CARTESIAN_POINT ( 'NONE',  ( -43.69922212598977040, 9.332531367082173901, 46.95523010548632215 ) ) ;
#442 = ORIENTED_EDGE ( 'NONE', *, *, #385, .T. ) ;
#443 = ORIENTED_EDGE ( 'NONE', *, *, #900, .F. ) ;
#444 = EDGE_CURVE ( 'NONE', #685, #163, #616, .T. ) ;
#445 = DIRECTION ( 'NONE',  ( -1.000000000000000000, 0.000000000000000000, 0.000000000000000000 ) ) ;
#446 = AXIS2_PLACEMENT_3D ( 'NONE', #742, #628, #846 ) ;
#447 = ORIENTED_EDGE ( 'NONE', *, *, #295, .F. ) ;
#448 = DIRECTION ( 'NONE',  ( -0.000000000000000000, -0.000000000000000000, -1.000000000000000000 ) ) ;
#449 = ORIENTED_EDGE ( 'NONE', *, *, #852, .T. ) ;
#450 = ORIENTED_EDGE ( 'NONE', *, *, #1256, .F. ) ;
#451 = DIRECTION ( 'NONE',  ( 0.000000000000000000, 0.000000000000000000, -1.000000000000000000 ) ) ;
#452 = ADVANCED_FACE ( 'NONE', ( #772, #531 ), #212, .T. ) ;
#453 = ORIENTED_EDGE ( 'NONE', *, *, #1012, .T. ) ;
#454 = CARTESIAN_POINT ( 'NONE',  ( -34.69922212598977040, -21.26746863291782219, 40.80523010548631646 ) ) ;
#455 = CARTESIAN_POINT ( 'NONE',  ( -45.69922212598976330, -4.267468632917821303, 13.40523010548631788 ) ) ;
#456 = LINE ( 'NONE', #354, #1208 ) ;
#457 = LINE ( 'NONE', #511, #972 ) ;
#458 = FACE_OUTER_BOUND ( 'NONE', #510, .T. ) ;
#459 = ADVANCED_FACE ( 'NONE', ( #1121 ), #915, .F. ) ;
#460 = DIRECTION ( 'NONE',  ( 1.000000000000000000, 0.000000000000000000, 0.000000000000000000 ) ) ;
#461 = CYLINDRICAL_SURFACE ( 'NONE', #343, 1.050000000000002265 ) ;
#462 = CARTESIAN_POINT ( 'NONE',  ( -69.49922212598977467, 12.78253136708217319, 37.20523010548632215 ) ) ;
#463 = ORIENTED_EDGE ( 'NONE', *, *, #1233, .T. ) ;
#464 = VERTEX_POINT ( 'NONE', #1105 ) ;
#465 = CARTESIAN_POINT ( 'NONE',  ( -43.57422212598976330, -12.39246863291782219, 29.40523010548631788 ) ) ;
#466 = EDGE_CURVE ( 'NONE', #796, #1260, #1035, .T. ) ;
#467 = ADVANCED_FACE ( 'NONE', ( #44 ), #473, .F. ) ;
#468 = CARTESIAN_POINT ( 'NONE',  ( -69.49922212598977467, -21.31746863291782645, 37.20523010548632215 ) ) ;
#469 = EDGE_LOOP ( 'NONE', ( #97, #470, #1129, #1171 ) ) ;
#470 = ORIENTED_EDGE ( 'NONE', *, *, #721, .F. ) ;
#471 = PLANE ( 'NONE',  #90 ) ;
#472 = EDGE_CURVE ( 'NONE', #680, #374, #328, .T. ) ;
#473 = CYLINDRICAL_SURFACE ( 'NONE', #654, 1.050000000000002265 ) ;
#474 = DIRECTION ( 'NONE',  ( -0.000000000000000000, -0.000000000000000000, -1.000000000000000000 ) ) ;
#475 = LINE ( 'NONE', #564, #198 ) ;
#476 = AXIS2_PLACEMENT_3D ( 'NONE', #454, #649, #358 ) ;
#477 = DIRECTION ( 'NONE',  ( 1.000000000000000000, 0.000000000000000000, 0.000000000000000000 ) ) ;
#478 = CARTESIAN_POINT ( 'NONE',  ( -43.57422212598976330, 3.857531367082177809, 29.40523010548631788 ) ) ;
#479 =( NAMED_UNIT ( * ) PLANE_ANGLE_UNIT ( ) SI_UNIT ( $, .RADIAN. ) );
#480 = ORIENTED_EDGE ( 'NONE', *, *, #790, .F. ) ;
#481 = ADVANCED_FACE ( 'NONE', ( #1288, #503, #229, #932, #658, #391 ), #333, .F. ) ;
#482 = FACE_BOUND ( 'NONE', #525, .T. ) ;
#483 = DIRECTION ( 'NONE',  ( 0.000000000000000000, 0.000000000000000000, -1.000000000000000000 ) ) ;
#484 = VECTOR ( 'NONE', #136, 1000.000000000000000 ) ;
#485 = SURFACE_SIDE_STYLE ('',( #513 ) ) ;
#486 = DIRECTION ( 'NONE',  ( 1.000000000000000000, 0.000000000000000000, -0.000000000000000000 ) ) ;
#487 = CIRCLE ( 'NONE', #111, 8.125000000000000000 ) ;
#488 = EDGE_CURVE ( 'NONE', #51, #20, #1285, .T. ) ;
#489 = DIRECTION ( 'NONE',  ( -0.000000000000000000, -0.000000000000000000, -1.000000000000000000 ) ) ;
#490 = VECTOR ( 'NONE', #375, 1000.000000000000000 ) ;
#491 = ORIENTED_EDGE ( 'NONE', *, *, #496, .T. ) ;
#492 = CARTESIAN_POINT ( 'NONE',  ( -52.94922212598976330, 10.08253136708217212, 41.80523010548631646 ) ) ;
#493 = CARTESIAN_POINT ( 'NONE',  ( -53.69922212598976330, 14.03253136708217497, 46.95523010548632215 ) ) ;
#494 = ORIENTED_EDGE ( 'NONE', *, *, #1157, .F. ) ;
#495 = ADVANCED_FACE ( 'NONE', ( #971 ), #538, .F. ) ;
#496 = EDGE_CURVE ( 'NONE', #1145, #464, #211, .T. ) ;
#497 =( NAMED_UNIT ( * ) PLANE_ANGLE_UNIT ( ) SI_UNIT ( $, .RADIAN. ) );
#498 = ORIENTED_EDGE ( 'NONE', *, *, #565, .T. ) ;
#499 = AXIS2_PLACEMENT_3D ( 'NONE', #493, #912, #400 ) ;
#500 = CARTESIAN_POINT ( 'NONE',  ( -52.94922212598976330, 10.08253136708217212, 46.95523010548632215 ) ) ;
#501 = ORIENTED_EDGE ( 'NONE', *, *, #418, .T. ) ;
#502 = CARTESIAN_POINT ( 'NONE',  ( -70.69922212598976330, 12.73253136708217248, 37.20523010548632215 ) ) ;
#503 = FACE_BOUND ( 'NONE', #633, .T. ) ;
#504 = DIRECTION ( 'NONE',  ( 1.000000000000000000, 0.000000000000000000, 0.000000000000000000 ) ) ;
#505 = EDGE_CURVE ( 'NONE', #647, #1111, #327, .T. ) ;
#506 = ORIENTED_EDGE ( 'NONE', *, *, #697, .F. ) ;
#507 = ADVANCED_FACE ( 'NONE', ( #458 ), #11, .T. ) ;
#508 = DIRECTION ( 'NONE',  ( -1.000000000000000000, 0.000000000000000000, 0.000000000000000000 ) ) ;
#509 = DIRECTION ( 'NONE',  ( 0.000000000000000000, 0.000000000000000000, -1.000000000000000000 ) ) ;
#510 = EDGE_LOOP ( 'NONE', ( #575, #717, #781, #1284 ) ) ;
#511 = CARTESIAN_POINT ( 'NONE',  ( -69.49922212598977467, 12.78253136708217319, 40.80523010548631646 ) ) ;
#512 = EDGE_LOOP ( 'NONE', ( #425, #896, #1156, #21 ) ) ;
#513 = SURFACE_STYLE_FILL_AREA ( #78 ) ;
#514 = CARTESIAN_POINT ( 'NONE',  ( -59.82422212598976330, -4.267468632917821303, 13.40523010548631788 ) ) ;
#515 = AXIS2_PLACEMENT_3D ( 'NONE', #27, #1138, #53 ) ;
#516 = ORIENTED_EDGE ( 'NONE', *, *, #304, .T. ) ;
#517 = CARTESIAN_POINT ( 'NONE',  ( -70.69922212598976330, -23.26746863291782574, 40.80523010548631646 ) ) ;
#518 = LINE ( 'NONE', #110, #393 ) ;
#519 = CARTESIAN_POINT ( 'NONE',  ( -51.69922212598976330, 3.857531367082177809, 29.40523010548631788 ) ) ;
#520 = EDGE_CURVE ( 'NONE', #524, #271, #800, .T. ) ;
#521 = ORIENTED_EDGE ( 'NONE', *, *, #534, .F. ) ;
#522 = PLANE ( 'NONE',  #810 ) ;
#523 = AXIS2_PLACEMENT_3D ( 'NONE', #112, #1205, #208 ) ;
#524 = VERTEX_POINT ( 'NONE', #743 ) ;
#525 = EDGE_LOOP ( 'NONE', ( #50, #770, #371, #1225 ) ) ;
#526 = CARTESIAN_POINT ( 'NONE',  ( -70.69922212598976330, 14.73253136708217426, 40.80523010548631646 ) ) ;
#527 = ORIENTED_EDGE ( 'NONE', *, *, #1097, .T. ) ;
#528 = ORIENTED_EDGE ( 'NONE', *, *, #707, .T. ) ;
#529 = CARTESIAN_POINT ( 'NONE',  ( -34.69922212598977040, 12.73253136708217248, 37.20523010548632215 ) ) ;
#530 = CARTESIAN_POINT ( 'NONE',  ( -68.44922212598976330, 12.78253136708217319, 40.80523010548631646 ) ) ;
#531 = FACE_OUTER_BOUND ( 'NONE', #1075, .T. ) ;
#532 = CARTESIAN_POINT ( 'NONE',  ( -34.94922212598976330, -21.31746863291782645, 40.80523010548631646 ) ) ;
#533 = VERTEX_POINT ( 'NONE', #739 ) ;
#534 = EDGE_CURVE ( 'NONE', #374, #680, #704, .T. ) ;
#535 = ORIENTED_EDGE ( 'NONE', *, *, #95, .T. ) ;
#536 = PLANE ( 'NONE',  #758 ) ;
#537 =( GEOMETRIC_REPRESENTATION_CONTEXT ( 3 ) GLOBAL_UNCERTAINTY_ASSIGNED_CONTEXT ( ( #1103 ) ) GLOBAL_UNIT_ASSIGNED_CONTEXT ( ( #70, #278, #284 ) ) REPRESENTATION_CONTEXT ( 'NONE', 'WORKASPACE' ) );
#538 = PLANE ( 'NONE',  #67 ) ;
#539 = ORIENTED_EDGE ( 'NONE', *, *, #209, .F. ) ;
#540 = DIRECTION ( 'NONE',  ( -1.000000000000000000, 0.000000000000000000, 0.000000000000000000 ) ) ;
#541 = DIRECTION ( 'NONE',  ( -0.000000000000000000, -0.000000000000000000, 1.000000000000000000 ) ) ;
#542 = EDGE_LOOP ( 'NONE', ( #450, #463, #216 ) ) ;
#543 = AXIS2_PLACEMENT_3D ( 'NONE', #754, #1044, #844 ) ;
#544 = VECTOR ( 'NONE', #541, 1000.000000000000000 ) ;
#545 = ORIENTED_EDGE ( 'NONE', *, *, #287, .T. ) ;
#546 = DIRECTION ( 'NONE',  ( -0.000000000000000000, -0.000000000000000000, 1.000000000000000000 ) ) ;
#547 = LINE ( 'NONE', #88, #72 ) ;
#548 = DIRECTION ( 'NONE',  ( 1.000000000000000000, 0.000000000000000000, 0.000000000000000000 ) ) ;
#549 = VECTOR ( 'NONE', #173, 1000.000000000000000 ) ;
#550 = ORIENTED_EDGE ( 'NONE', *, *, #520, .T. ) ;
#551 = DIRECTION ( 'NONE',  ( 0.000000000000000000, -0.000000000000000000, -1.000000000000000000 ) ) ;
#552 = CARTESIAN_POINT ( 'NONE',  ( -51.69922212598976330, -4.267468632917822191, 14.40523010548631966 ) ) ;
#553 = ORIENTED_EDGE ( 'NONE', *, *, #129, .T. ) ;
#554 = EDGE_LOOP ( 'NONE', ( #412, #1294 ) ) ;
#555 = EDGE_CURVE ( 'NONE', #806, #1144, #568, .T. ) ;
#556 = CARTESIAN_POINT ( 'NONE',  ( -51.69922212598976330, -4.267468632917822191, 46.95523010548632215 ) ) ;
#557 = AXIS2_PLACEMENT_3D ( 'NONE', #702, #399, #594 ) ;
#558 = EDGE_LOOP ( 'NONE', ( #494, #559, #825, #130 ) ) ;
#559 = ORIENTED_EDGE ( 'NONE', *, *, #373, .T. ) ;
#560 = CARTESIAN_POINT ( 'NONE',  ( -70.69922212598976330, 12.73253136708217248, 40.80523010548631646 ) ) ;
#561 = ORIENTED_EDGE ( 'NONE', *, *, #319, .F. ) ;
#562 = CARTESIAN_POINT ( 'NONE',  ( -70.69922212598976330, -21.26746863291782219, 40.80523010548631646 ) ) ;
#563 = ADVANCED_FACE ( 'NONE', ( #25 ), #325, .F. ) ;
#564 = CARTESIAN_POINT ( 'NONE',  ( -34.69922212598977040, -23.26746863291782574, 40.80523010548631646 ) ) ;
#565 = EDGE_CURVE ( 'NONE', #937, #1115, #360, .T. ) ;
#566 = FILL_AREA_STYLE_COLOUR ( '', #330 ) ;
#567 = VERTEX_POINT ( 'NONE', #1029 ) ;
#568 = LINE ( 'NONE', #141, #118 ) ;
#569 = CARTESIAN_POINT ( 'NONE',  ( -53.69922212598976330, 9.332531367082173901, 46.95523010548632215 ) ) ;
#570 = CIRCLE ( 'NONE', #523, 1.050000000000002265 ) ;
#571 = DIRECTION ( 'NONE',  ( -1.000000000000000000, 0.000000000000000000, 0.000000000000000000 ) ) ;
#572 = DIRECTION ( 'NONE',  ( 0.000000000000000000, 1.000000000000000000, 0.000000000000000000 ) ) ;
#573 = CARTESIAN_POINT ( 'NONE',  ( -44.44922212598976330, 13.28253136708217674, 41.80523010548631646 ) ) ;
#574 = EDGE_CURVE ( 'NONE', #886, #759, #87, .T. ) ;
#575 = ORIENTED_EDGE ( 'NONE', *, *, #641, .F. ) ;
#576 = DIRECTION ( 'NONE',  ( 0.000000000000000000, -1.000000000000000000, -0.000000000000000000 ) ) ;
#577 = CIRCLE ( 'NONE', #189, 8.125000000000000000 ) ;
#578 = PLANE ( 'NONE',  #338 ) ;
#579 = FACE_OUTER_BOUND ( 'NONE', #648, .T. ) ;
#580 = LINE ( 'NONE', #131, #869 ) ;
#581 = EDGE_CURVE ( 'NONE', #317, #1115, #1210, .T. ) ;
#582 = CARTESIAN_POINT ( 'NONE',  ( -68.69922212598976330, 12.73253136708217248, 40.80523010548631646 ) ) ;
#583 = LINE ( 'NONE', #1282, #45 ) ;
#584 = ADVANCED_FACE ( 'NONE', ( #265 ), #1119, .F. ) ;
#585 = CYLINDRICAL_SURFACE ( 'NONE', #1244, 2.000000000000001776 ) ;
#586 = AXIS2_PLACEMENT_3D ( 'NONE', #748, #637, #445 ) ;
#587 = PRODUCT_CONTEXT ( 'NONE', #878, 'mechanical' ) ;
#588 = LINE ( 'NONE', #264, #873 ) ;
#589 = CYLINDRICAL_SURFACE ( 'NONE', #22, 5.999999999999998224 ) ;
#590 = CARTESIAN_POINT ( 'NONE',  ( -57.69922212598976330, -4.267468632917822191, 14.40523010548631966 ) ) ;
#591 = DIRECTION ( 'NONE',  ( -1.000000000000000000, 0.000000000000000000, 0.000000000000000000 ) ) ;
#592 = ADVANCED_FACE ( 'NONE', ( #181 ), #683, .T. ) ;
#593 = EDGE_CURVE ( 'NONE', #422, #1032, #280, .T. ) ;
#594 = DIRECTION ( 'NONE',  ( 1.000000000000000000, 0.000000000000000000, 0.000000000000000000 ) ) ;
#595 = CARTESIAN_POINT ( 'NONE',  ( -51.69922212598976330, -4.267468632917822191, 13.40523010548631788 ) ) ;
#596 = AXIS2_PLACEMENT_3D ( 'NONE', #530, #1135, #127 ) ;
#597 = ORIENTED_EDGE ( 'NONE', *, *, #336, .F. ) ;
#598 = ORIENTED_EDGE ( 'NONE', *, *, #268, .F. ) ;
#599 = DIRECTION ( 'NONE',  ( -0.000000000000000000, -0.000000000000000000, 1.000000000000000000 ) ) ;
#600 = CARTESIAN_POINT ( 'NONE',  ( -33.89922212598975904, 12.78253136708217319, 37.20523010548632215 ) ) ;
#601 = CARTESIAN_POINT ( 'NONE',  ( -44.44922212598976330, 10.08253136708217212, 41.80523010548631646 ) ) ;
#602 = CYLINDRICAL_SURFACE ( 'NONE', #690, 1.050000000000009148 ) ;
#603 = EDGE_CURVE ( 'NONE', #464, #1127, #995, .T. ) ;
#604 = PLANE ( 'NONE',  #49 ) ;
#605 = LINE ( 'NONE', #465, #439 ) ;
#606 = DIRECTION ( 'NONE',  ( 0.000000000000000000, 0.000000000000000000, -1.000000000000000000 ) ) ;
#607 = EDGE_LOOP ( 'NONE', ( #381, #944, #81 ) ) ;
#608 = EDGE_LOOP ( 'NONE', ( #746, #226, #779, #1028 ) ) ;
#609 = EDGE_CURVE ( 'NONE', #207, #254, #456, .T. ) ;
#610 = EDGE_LOOP ( 'NONE', ( #963, #1293, #1273, #645 ) ) ;
#611 = CARTESIAN_POINT ( 'NONE',  ( -43.69922212598977040, 9.332531367082173901, 46.95523010548632215 ) ) ;
#612 = CARTESIAN_POINT ( 'NONE',  ( -51.69922212598976330, -4.267468632917822191, 14.40523010548631966 ) ) ;
#613 = AXIS2_PLACEMENT_3D ( 'NONE', #420, #17, #508 ) ;
#614 = DIRECTION ( 'NONE',  ( 0.000000000000000000, 0.000000000000000000, -1.000000000000000000 ) ) ;
#615 = CIRCLE ( 'NONE', #403, 1.050000000000002265 ) ;
#616 = LINE ( 'NONE', #1200, #28 ) ;
#617 = DIRECTION ( 'NONE',  ( -0.000000000000000000, -0.000000000000000000, -1.000000000000000000 ) ) ;
#618 = EDGE_CURVE ( 'NONE', #163, #567, #903, .T. ) ;
#619 = CARTESIAN_POINT ( 'NONE',  ( -33.89922212598975904, -21.31746863291782645, 40.80523010548631646 ) ) ;
#620 = ORIENTED_EDGE ( 'NONE', *, *, #259, .T. ) ;
#621 = ORIENTED_EDGE ( 'NONE', *, *, #29, .T. ) ;
#622 = DIRECTION ( 'NONE',  ( 0.000000000000000000, 0.000000000000000000, -1.000000000000000000 ) ) ;
#623 = EDGE_LOOP ( 'NONE', ( #308, #521, #959, #126 ) ) ;
#624 = DIRECTION ( 'NONE',  ( -1.000000000000000000, 0.000000000000000000, 0.000000000000000000 ) ) ;
#625 = EDGE_LOOP ( 'NONE', ( #167, #1143, #217, #908 ) ) ;
#626 = VECTOR ( 'NONE', #339, 1000.000000000000000 ) ;
#627 = CARTESIAN_POINT ( 'NONE',  ( -51.69922212598976330, -4.267468632917822191, 13.40523010548631788 ) ) ;
#628 = DIRECTION ( 'NONE',  ( 0.000000000000000000, 1.000000000000000000, 0.000000000000000000 ) ) ;
#629 =( GEOMETRIC_REPRESENTATION_CONTEXT ( 3 ) GLOBAL_UNCERTAINTY_ASSIGNED_CONTEXT ( ( #916 ) ) GLOBAL_UNIT_ASSIGNED_CONTEXT ( ( #1006, #497, #75 ) ) REPRESENTATION_CONTEXT ( 'NONE', 'WORKASPACE' ) );
#630 = DIRECTION ( 'NONE',  ( 0.000000000000000000, 0.000000000000000000, -1.000000000000000000 ) ) ;
#631 = EDGE_LOOP ( 'NONE', ( #561, #276, #1185, #715 ) ) ;
#632 = ORIENTED_EDGE ( 'NONE', *, *, #593, .T. ) ;
#633 = EDGE_LOOP ( 'NONE', ( #69, #856 ) ) ;
#634 = DIRECTION ( 'NONE',  ( 0.000000000000000000, 0.000000000000000000, -1.000000000000000000 ) ) ;
#635 = CARTESIAN_POINT ( 'NONE',  ( -70.69922212598976330, -23.26746863291782574, 40.80523010548631646 ) ) ;
#636 = CIRCLE ( 'NONE', #269, 2.000000000000001776 ) ;
#637 = DIRECTION ( 'NONE',  ( 0.000000000000000000, 0.000000000000000000, -1.000000000000000000 ) ) ;
#638 = FACE_OUTER_BOUND ( 'NONE', #897, .T. ) ;
#639 = DIRECTION ( 'NONE',  ( -0.000000000000000000, -0.000000000000000000, -1.000000000000000000 ) ) ;
#640 = DIRECTION ( 'NONE',  ( 0.000000000000000000, 0.000000000000000000, -1.000000000000000000 ) ) ;
#641 = EDGE_CURVE ( 'NONE', #254, #864, #104, .T. ) ;
#642 = ADVANCED_FACE ( 'NONE', ( #659 ), #342, .F. ) ;
#643 = ORIENTED_EDGE ( 'NONE', *, *, #609, .T. ) ;
#644 = DIRECTION ( 'NONE',  ( 0.000000000000000000, 0.000000000000000000, -1.000000000000000000 ) ) ;
#645 = ORIENTED_EDGE ( 'NONE', *, *, #755, .T. ) ;
#646 = CARTESIAN_POINT ( 'NONE',  ( -53.69922212598976330, 14.03253136708217497, 40.80523010548631646 ) ) ;
#647 = VERTEX_POINT ( 'NONE', #455 ) ;
#648 = EDGE_LOOP ( 'NONE', ( #449, #698, #324, #193 ) ) ;
#649 = DIRECTION ( 'NONE',  ( 0.000000000000000000, 0.000000000000000000, -1.000000000000000000 ) ) ;
#650 = EDGE_LOOP ( 'NONE', ( #764, #858, #805, #108 ) ) ;
#651 = CARTESIAN_POINT ( 'NONE',  ( -68.69922212598976330, 12.73253136708217248, 37.20523010548632215 ) ) ;
#652 = ORIENTED_EDGE ( 'NONE', *, *, #712, .T. ) ;
#653 = VECTOR ( 'NONE', #667, 1000.000000000000000 ) ;
#654 = AXIS2_PLACEMENT_3D ( 'NONE', #1226, #639, #1124 ) ;
#655 = CYLINDRICAL_SURFACE ( 'NONE', #289, 5.999999999999998224 ) ;
#656 = ORIENTED_EDGE ( 'NONE', *, *, #304, .F. ) ;
#657 = CARTESIAN_POINT ( 'NONE',  ( -51.69922212598976330, -4.267468632917822191, 13.40523010548631788 ) ) ;
#658 = FACE_BOUND ( 'NONE', #1026, .T. ) ;
#659 = FACE_OUTER_BOUND ( 'NONE', #623, .T. ) ;
#660 = ADVANCED_FACE ( 'NONE', ( #267 ), #145, .F. ) ;
#661 = CARTESIAN_POINT ( 'NONE',  ( -59.82422212598976330, -12.39246863291782219, 37.20523010548632215 ) ) ;
#662 = CARTESIAN_POINT ( 'NONE',  ( -44.44922212598976330, 10.08253136708217212, 41.80523010548631646 ) ) ;
#663 = ORIENTED_EDGE ( 'NONE', *, *, #609, .F. ) ;
#664 = EDGE_CURVE ( 'NONE', #701, #169, #475, .T. ) ;
#665 = CARTESIAN_POINT ( 'NONE',  ( -52.94922212598976330, 10.08253136708217212, 41.80523010548631646 ) ) ;
#666 = ORIENTED_EDGE ( 'NONE', *, *, #505, .F. ) ;
#667 = DIRECTION ( 'NONE',  ( 0.000000000000000000, 1.000000000000000000, 0.000000000000000000 ) ) ;
#668 = VERTEX_POINT ( 'NONE', #1245 ) ;
#669 = FACE_OUTER_BOUND ( 'NONE', #160, .T. ) ;
#670 = EDGE_CURVE ( 'NONE', #991, #1260, #983, .T. ) ;
#671 = CARTESIAN_POINT ( 'NONE',  ( -34.94922212598976330, -21.31746863291782645, 37.20523010548632215 ) ) ;
#672 = ADVANCED_FACE ( 'NONE', ( #1110 ), #1080, .T. ) ;
#673 = CIRCLE ( 'NONE', #738, 1.050000000000002265 ) ;
#674 = AXIS2_PLACEMENT_3D ( 'NONE', #635, #1025, #424 ) ;
#675 = FACE_OUTER_BOUND ( 'NONE', #1057, .T. ) ;
#676 = DIRECTION ( 'NONE',  ( -1.000000000000000000, 0.000000000000000000, 0.000000000000000000 ) ) ;
#677 = SURFACE_STYLE_FILL_AREA ( #58 ) ;
#678 = ORIENTED_EDGE ( 'NONE', *, *, #841, .F. ) ;
#679 = EDGE_CURVE ( 'NONE', #685, #1255, #1253, .T. ) ;
#680 = VERTEX_POINT ( 'NONE', #1169 ) ;
#681 = PRODUCT_DEFINITION_FORMATION_WITH_SPECIFIED_SOURCE ( 'ANY', '', #939, .NOT_KNOWN. ) ;
#682 = ORIENTED_EDGE ( 'NONE', *, *, #361, .F. ) ;
#683 = PLANE ( 'NONE',  #77 ) ;
#684 = CARTESIAN_POINT ( 'NONE',  ( -33.89922212598975904, 12.78253136708217319, 40.80523010548631646 ) ) ;
#685 = VERTEX_POINT ( 'NONE', #346 ) ;
#686 = FACE_OUTER_BOUND ( 'NONE', #610, .T. ) ;
#687 = EDGE_CURVE ( 'NONE', #54, #839, #301, .T. ) ;
#688 = DIRECTION ( 'NONE',  ( 0.000000000000000000, 0.000000000000000000, -1.000000000000000000 ) ) ;
#689 = VECTOR ( 'NONE', #1090, 1000.000000000000000 ) ;
#690 = AXIS2_PLACEMENT_3D ( 'NONE', #368, #448, #1188 ) ;
#691 = VECTOR ( 'NONE', #1186, 1000.000000000000000 ) ;
#692 = DIRECTION ( 'NONE',  ( 0.000000000000000000, 0.000000000000000000, -1.000000000000000000 ) ) ;
#693 = CYLINDRICAL_SURFACE ( 'NONE', #747, 8.125000000000000000 ) ;
#694 = ADVANCED_FACE ( 'NONE', ( #675 ), #602, .F. ) ;
#695 = CARTESIAN_POINT ( 'NONE',  ( -51.69922212598976330, -4.267468632917822191, 29.40523010548631788 ) ) ;
#696 = DIRECTION ( 'NONE',  ( -1.000000000000000000, 0.000000000000000000, 0.000000000000000000 ) ) ;
#697 = EDGE_CURVE ( 'NONE', #114, #961, #437, .T. ) ;
#698 = ORIENTED_EDGE ( 'NONE', *, *, #679, .F. ) ;
#699 = DIRECTION ( 'NONE',  ( -0.000000000000000000, 1.000000000000000000, 0.000000000000000000 ) ) ;
#700 = AXIS2_PLACEMENT_3D ( 'NONE', #116, #415, #1114 ) ;
#701 = VERTEX_POINT ( 'NONE', #1177 ) ;
#702 = CARTESIAN_POINT ( 'NONE',  ( -68.44922212598976330, 12.78253136708217319, 37.20523010548632215 ) ) ;
#703 = CARTESIAN_POINT ( 'NONE',  ( -51.69922212598976330, -4.267468632917822191, 13.40523010548631788 ) ) ;
#704 = CIRCLE ( 'NONE', #203, 1.050000000000009148 ) ;
#705 = VECTOR ( 'NONE', #902, 1000.000000000000000 ) ;
#706 = VECTOR ( 'NONE', #824, 1000.000000000000000 ) ;
#707 = EDGE_CURVE ( 'NONE', #86, #1173, #1136, .T. ) ;
#708 = DIRECTION ( 'NONE',  ( -1.000000000000000000, 0.000000000000000000, 0.000000000000000000 ) ) ;
#709 = LINE ( 'NONE', #1247, #215 ) ;
#710 = CARTESIAN_POINT ( 'NONE',  ( -43.69922212598977040, 9.332531367082173901, 40.80523010548631646 ) ) ;
#711 = ORIENTED_EDGE ( 'NONE', *, *, #379, .T. ) ;
#712 = EDGE_CURVE ( 'NONE', #163, #143, #583, .T. ) ;
#713 = EDGE_LOOP ( 'NONE', ( #866, #442, #1060, #1230 ) ) ;
#714 = DIRECTION ( 'NONE',  ( 0.000000000000000000, 1.000000000000000000, 0.000000000000000000 ) ) ;
#715 = ORIENTED_EDGE ( 'NONE', *, *, #336, .T. ) ;
#716 = AXIS2_PLACEMENT_3D ( 'NONE', #1051, #895, #763 ) ;
#717 = ORIENTED_EDGE ( 'NONE', *, *, #186, .F. ) ;
#718 = VECTOR ( 'NONE', #158, 1000.000000000000000 ) ;
#719 = VECTOR ( 'NONE', #1237, 1000.000000000000000 ) ;
#720 = CIRCLE ( 'NONE', #197, 8.125000000000000000 ) ;
#721 = EDGE_CURVE ( 'NONE', #260, #725, #139, .T. ) ;
#722 = AXIS2_PLACEMENT_3D ( 'NONE', #865, #253, #548 ) ;
#723 = VECTOR ( 'NONE', #35, 1000.000000000000000 ) ;
#724 = DIRECTION ( 'NONE',  ( -1.000000000000000000, 0.000000000000000000, 0.000000000000000000 ) ) ;
#725 = VERTEX_POINT ( 'NONE', #1098 ) ;
#726 = ORIENTED_EDGE ( 'NONE', *, *, #1005, .F. ) ;
#727 = EDGE_LOOP ( 'NONE', ( #1071, #16, #1052, #923 ) ) ;
#728 = ORIENTED_EDGE ( 'NONE', *, *, #618, .F. ) ;
#729 = CARTESIAN_POINT ( 'NONE',  ( -59.82422212598976330, -4.267468632917822191, 29.40523010548631788 ) ) ;
#730 = EDGE_LOOP ( 'NONE', ( #976, #666 ) ) ;
#731 = CARTESIAN_POINT ( 'NONE',  ( -67.39922212598975193, -21.31746863291782645, 40.80523010548631646 ) ) ;
#732 = ORIENTED_EDGE ( 'NONE', *, *, #287, .F. ) ;
#733 = CYLINDRICAL_SURFACE ( 'NONE', #1015, 1.050000000000009148 ) ;
#734 = DIRECTION ( 'NONE',  ( 0.000000000000000000, -1.000000000000000000, 0.000000000000000000 ) ) ;
#735 = FACE_OUTER_BOUND ( 'NONE', #1041, .T. ) ;
#736 = CIRCLE ( 'NONE', #428, 8.125000000000000000 ) ;
#737 = DIRECTION ( 'NONE',  ( 0.000000000000000000, 1.000000000000000000, 0.000000000000000000 ) ) ;
#738 = AXIS2_PLACEMENT_3D ( 'NONE', #102, #1024, #323 ) ;
#739 = CARTESIAN_POINT ( 'NONE',  ( -53.69922212598976330, 9.332531367082173901, 40.80523010548631646 ) ) ;
#740 = ORIENTED_EDGE ( 'NONE', *, *, #603, .T. ) ;
#741 = EDGE_LOOP ( 'NONE', ( #1190, #632, #350, #1277, #480 ) ) ;
#742 = CARTESIAN_POINT ( 'NONE',  ( -53.69922212598976330, 9.332531367082173901, 46.95523010548632215 ) ) ;
#743 = CARTESIAN_POINT ( 'NONE',  ( -67.39922212598975193, -21.31746863291782645, 40.80523010548631646 ) ) ;
#744 = ORIENTED_EDGE ( 'NONE', *, *, #326, .F. ) ;
#745 = CARTESIAN_POINT ( 'NONE',  ( -43.69922212598977040, 14.03253136708217497, 46.95523010548632215 ) ) ;
#746 = ORIENTED_EDGE ( 'NONE', *, *, #101, .F. ) ;
#747 = AXIS2_PLACEMENT_3D ( 'NONE', #162, #168, #477 ) ;
#748 = CARTESIAN_POINT ( 'NONE',  ( -34.69922212598977040, -21.26746863291782219, 37.20523010548632215 ) ) ;
#749 = VECTOR ( 'NONE', #366, 1000.000000000000000 ) ;
#750 = VECTOR ( 'NONE', #644, 1000.000000000000000 ) ;
#751 = ADVANCED_FACE ( 'NONE', ( #59 ), #303, .F. ) ;
#752 = VECTOR ( 'NONE', #115, 1000.000000000000000 ) ;
#753 = CARTESIAN_POINT ( 'NONE',  ( -52.94922212598976330, 10.08253136708217212, 41.80523010548631646 ) ) ;
#754 = CARTESIAN_POINT ( 'NONE',  ( -51.69922212598976330, -4.267468632917822191, 14.40523010548631966 ) ) ;
#755 = EDGE_CURVE ( 'NONE', #51, #183, #1094, .T. ) ;
#756 = CLOSED_SHELL ( 'NONE', ( #1061, #151, #1054, #898, #467, #79, #481, #766, #962, #584, #1291, #170, #495, #563, #660, #383, #1096, #293, #507, #236, #367, #694, #642, #459, #184, #47, #1161, #94, #672, #452, #1, #592, #1274, #1083, #1011, #270, #1248, #751, #1089, #1181, #256, #1077 ) ) ;
#757 = CARTESIAN_POINT ( 'NONE',  ( -59.82422212598976330, 3.857531367082177809, 37.20523010548632215 ) ) ;
#758 = AXIS2_PLACEMENT_3D ( 'NONE', #441, #1128, #232 ) ;
#759 = VERTEX_POINT ( 'NONE', #390 ) ;
#760 = PLANE ( 'NONE',  #819 ) ;
#761 = ORIENTED_EDGE ( 'NONE', *, *, #906, .F. ) ;
#762 = EDGE_LOOP ( 'NONE', ( #1003, #1213, #955, #384 ) ) ;
#763 = DIRECTION ( 'NONE',  ( -1.000000000000000000, 0.000000000000000000, 0.000000000000000000 ) ) ;
#764 = ORIENTED_EDGE ( 'NONE', *, *, #472, .F. ) ;
#765 = CARTESIAN_POINT ( 'NONE',  ( -32.69922212598977040, -23.26746863291782574, 40.80523010548631646 ) ) ;
#766 = ADVANCED_FACE ( 'NONE', ( #773 ), #911, .F. ) ;
#767 = MECHANICAL_DESIGN_GEOMETRIC_PRESENTATION_REPRESENTATION (  '', ( #410 ), #629 ) ;
#768 = DIRECTION ( 'NONE',  ( -0.000000000000000000, -1.000000000000000000, -0.000000000000000000 ) ) ;
#769 = VECTOR ( 'NONE', #965, 1000.000000000000000 ) ;
#770 = ORIENTED_EDGE ( 'NONE', *, *, #1148, .F. ) ;
#771 = VECTOR ( 'NONE', #792, 1000.000000000000000 ) ;
#772 = FACE_BOUND ( 'NONE', #730, .T. ) ;
#773 = FACE_OUTER_BOUND ( 'NONE', #1198, .T. ) ;
#774 = CARTESIAN_POINT ( 'NONE',  ( -43.69922212598977040, 9.332531367082173901, 46.95523010548632215 ) ) ;
#775 = EDGE_LOOP ( 'NONE', ( #957, #251, #1104, #1249 ) ) ;
#776 = DIRECTION ( 'NONE',  ( 1.000000000000000000, 0.000000000000000000, 0.000000000000000000 ) ) ;
#777 = PRODUCT_DEFINITION_CONTEXT ( 'detailed design', #290, 'design' ) ;
#778 = DIRECTION ( 'NONE',  ( -0.000000000000000000, -0.000000000000000000, -1.000000000000000000 ) ) ;
#779 = ORIENTED_EDGE ( 'NONE', *, *, #1012, .F. ) ;
#780 = CARTESIAN_POINT ( 'NONE',  ( -51.69922212598976330, -4.267468632917822191, 37.20523010548632215 ) ) ;
#781 = ORIENTED_EDGE ( 'NONE', *, *, #1069, .F. ) ;
#782 = EDGE_CURVE ( 'NONE', #1173, #464, #329, .T. ) ;
#783 = DIRECTION ( 'NONE',  ( -0.000000000000000000, 0.000000000000000000, -1.000000000000000000 ) ) ;
#784 = AXIS2_PLACEMENT_3D ( 'NONE', #532, #946, #842 ) ;
#785 = DIRECTION ( 'NONE',  ( -1.000000000000000000, 0.000000000000000000, -0.000000000000000000 ) ) ;
#786 = DIRECTION ( 'NONE',  ( 0.000000000000000000, 1.000000000000000000, 0.000000000000000000 ) ) ;
#787 = DIRECTION ( 'NONE',  ( -1.000000000000000000, 0.000000000000000000, 0.000000000000000000 ) ) ;
#788 = FACE_OUTER_BOUND ( 'NONE', #334, .T. ) ;
#789 = DIRECTION ( 'NONE',  ( 0.000000000000000000, 0.000000000000000000, 1.000000000000000000 ) ) ;
#790 = EDGE_CURVE ( 'NONE', #668, #205, #1067, .T. ) ;
#791 = ORIENTED_EDGE ( 'NONE', *, *, #863, .T. ) ;
#792 = DIRECTION ( 'NONE',  ( 1.000000000000000000, 0.000000000000000000, 0.000000000000000000 ) ) ;
#793 = ORIENTED_EDGE ( 'NONE', *, *, #998, .T. ) ;
#794 = EDGE_LOOP ( 'NONE', ( #740, #65, #506, #678, #491 ) ) ;
#795 = DIRECTION ( 'NONE',  ( -0.000000000000000000, -0.000000000000000000, 1.000000000000000000 ) ) ;
#796 = VERTEX_POINT ( 'NONE', #299 ) ;
#797 = ORIENTED_EDGE ( 'NONE', *, *, #472, .T. ) ;
#798 = FACE_BOUND ( 'NONE', #762, .T. ) ;
#799 = EDGE_CURVE ( 'NONE', #1002, #1045, #26, .T. ) ;
#800 = LINE ( 'NONE', #731, #1091 ) ;
#801 = CARTESIAN_POINT ( 'NONE',  ( -52.94922212598976330, 13.28253136708217674, 41.80523010548631646 ) ) ;
#802 = LINE ( 'NONE', #710, #951 ) ;
#803 = VECTOR ( 'NONE', #1008, 1000.000000000000000 ) ;
#804 = CARTESIAN_POINT ( 'NONE',  ( -43.57422212598976330, 3.857531367082177809, 29.40523010548631788 ) ) ;
#805 = ORIENTED_EDGE ( 'NONE', *, *, #83, .T. ) ;
#806 = VERTEX_POINT ( 'NONE', #899 ) ;
#807 = CARTESIAN_POINT ( 'NONE',  ( -34.69922212598977040, 14.73253136708217426, 40.80523010548631646 ) ) ;
#808 = EDGE_LOOP ( 'NONE', ( #429, #833, #813, #76, #643, #331, #279, #535 ) ) ;
#809 = CARTESIAN_POINT ( 'NONE',  ( -53.69922212598976330, 14.03253136708217497, 46.95523010548632215 ) ) ;
#810 = AXIS2_PLACEMENT_3D ( 'NONE', #1207, #818, #1214 ) ;
#811 = ORIENTED_EDGE ( 'NONE', *, *, #1031, .F. ) ;
#812 = DIRECTION ( 'NONE',  ( -0.000000000000000000, 0.000000000000000000, -1.000000000000000000 ) ) ;
#813 = ORIENTED_EDGE ( 'NONE', *, *, #1157, .T. ) ;
#814 = FACE_BOUND ( 'NONE', #554, .T. ) ;
#815 = DIRECTION ( 'NONE',  ( 0.000000000000000000, 0.000000000000000000, -1.000000000000000000 ) ) ;
#816 = LINE ( 'NONE', #867, #310 ) ;
#817 = EDGE_LOOP ( 'NONE', ( #545, #1086, #190, #5 ) ) ;
#818 = DIRECTION ( 'NONE',  ( 0.000000000000000000, -0.000000000000000000, 1.000000000000000000 ) ) ;
#819 = AXIS2_PLACEMENT_3D ( 'NONE', #42, #1243, #239 ) ;
#820 = CARTESIAN_POINT ( 'NONE',  ( -51.69922212598976330, -4.267468632917822191, 29.40523010548631788 ) ) ;
#821 = CIRCLE ( 'NONE', #1058, 2.000000000000001776 ) ;
#822 = EDGE_LOOP ( 'NONE', ( #1217, #1055, #447, #113, #1215 ) ) ;
#823 = DIRECTION ( 'NONE',  ( -0.000000000000000000, -0.000000000000000000, -1.000000000000000000 ) ) ;
#824 = DIRECTION ( 'NONE',  ( 1.000000000000000000, 0.000000000000000000, 0.000000000000000000 ) ) ;
#825 = ORIENTED_EDGE ( 'NONE', *, *, #964, .T. ) ;
#826 = CARTESIAN_POINT ( 'NONE',  ( -35.99922212598976756, 12.78253136708217319, 40.80523010548631646 ) ) ;
#827 = EDGE_LOOP ( 'NONE', ( #663, #793, #32, #918 ) ) ;
#828 = AXIS2_PLACEMENT_3D ( 'NONE', #657, #868, #257 ) ;
#829 = ORIENTED_EDGE ( 'NONE', *, *, #593, .F. ) ;
#830 = CARTESIAN_POINT ( 'NONE',  ( -34.94922212598976330, -21.31746863291782645, 40.80523010548631646 ) ) ;
#831 = DIRECTION ( 'NONE',  ( -1.000000000000000000, 0.000000000000000000, 0.000000000000000000 ) ) ;
#832 = VECTOR ( 'NONE', #414, 1000.000000000000000 ) ;
#833 = ORIENTED_EDGE ( 'NONE', *, *, #1087, .T. ) ;
#834 = EDGE_CURVE ( 'NONE', #260, #685, #1033, .T. ) ;
#835 = VECTOR ( 'NONE', #98, 1000.000000000000000 ) ;
#836 = CARTESIAN_POINT ( 'NONE',  ( -43.57422212598976330, 3.857531367082177809, 29.40523010548631788 ) ) ;
#837 = CIRCLE ( 'NONE', #157, 1.050000000000009148 ) ;
#838 = DIRECTION ( 'NONE',  ( -1.000000000000000000, 0.000000000000000000, -0.000000000000000000 ) ) ;
#839 = VERTEX_POINT ( 'NONE', #296 ) ;
#840 = CARTESIAN_POINT ( 'NONE',  ( -68.69922212598976330, -21.26746863291782219, 40.80523010548631646 ) ) ;
#841 = EDGE_CURVE ( 'NONE', #1145, #114, #12, .T. ) ;
#842 = DIRECTION ( 'NONE',  ( 1.000000000000000000, 0.000000000000000000, 0.000000000000000000 ) ) ;
#843 = DIRECTION ( 'NONE',  ( -0.000000000000000000, 0.000000000000000000, -1.000000000000000000 ) ) ;
#844 = DIRECTION ( 'NONE',  ( -1.000000000000000000, 0.000000000000000000, 0.000000000000000000 ) ) ;
#845 = VECTOR ( 'NONE', #1234, 1000.000000000000000 ) ;
#846 = DIRECTION ( 'NONE',  ( 0.000000000000000000, -0.000000000000000000, 1.000000000000000000 ) ) ;
#847 = FACE_OUTER_BOUND ( 'NONE', #146, .T. ) ;
#848 = DIRECTION ( 'NONE',  ( -0.000000000000000000, -0.000000000000000000, 1.000000000000000000 ) ) ;
#849 = VECTOR ( 'NONE', #201, 1000.000000000000000 ) ;
#850 = LINE ( 'NONE', #907, #315 ) ;
#851 = CARTESIAN_POINT ( 'NONE',  ( -34.94922212598976330, 12.78253136708217319, 40.80523010548631646 ) ) ;
#852 = EDGE_CURVE ( 'NONE', #725, #1255, #119, .T. ) ;
#853 = FACE_OUTER_BOUND ( 'NONE', #822, .T. ) ;
#854 = ORIENTED_EDGE ( 'NONE', *, *, #19, .T. ) ;
#855 = CARTESIAN_POINT ( 'NONE',  ( -44.44922212598976330, 10.08253136708217212, 46.95523010548632215 ) ) ;
#856 = ORIENTED_EDGE ( 'NONE', *, *, #900, .T. ) ;
#857 = CARTESIAN_POINT ( 'NONE',  ( -43.69922212598977040, 14.03253136708217497, 40.80523010548631646 ) ) ;
#858 = ORIENTED_EDGE ( 'NONE', *, *, #148, .T. ) ;
#859 = DIRECTION ( 'NONE',  ( 0.000000000000000000, 1.000000000000000000, 0.000000000000000000 ) ) ;
#860 = ORIENTED_EDGE ( 'NONE', *, *, #565, .F. ) ;
#861 = UNCERTAINTY_MEASURE_WITH_UNIT (LENGTH_MEASURE( 1.000000000000000082E-05 ), #987, 'distance_accuracy_value', 'NONE');
#862 = CARTESIAN_POINT ( 'NONE',  ( -68.44922212598976330, 12.78253136708217319, 40.80523010548631646 ) ) ;
#863 = EDGE_CURVE ( 'NONE', #1070, #80, #1007, .T. ) ;
#864 = VERTEX_POINT ( 'NONE', #807 ) ;
#865 = CARTESIAN_POINT ( 'NONE',  ( -68.44922212598976330, 12.78253136708217319, 37.20523010548632215 ) ) ;
#866 = ORIENTED_EDGE ( 'NONE', *, *, #61, .F. ) ;
#867 = CARTESIAN_POINT ( 'NONE',  ( -44.44922212598976330, 10.08253136708217212, 46.95523010548632215 ) ) ;
#868 = DIRECTION ( 'NONE',  ( -0.000000000000000000, -0.000000000000000000, 1.000000000000000000 ) ) ;
#869 = VECTOR ( 'NONE', #737, 1000.000000000000000 ) ;
#870 = DIRECTION ( 'NONE',  ( -1.000000000000000000, 0.000000000000000000, 0.000000000000000000 ) ) ;
#871 = DIRECTION ( 'NONE',  ( 0.000000000000000000, -0.000000000000000000, 1.000000000000000000 ) ) ;
#872 = DIRECTION ( 'NONE',  ( 0.000000000000000000, 1.000000000000000000, 0.000000000000000000 ) ) ;
#873 = VECTOR ( 'NONE', #985, 1000.000000000000000 ) ;
#874 = CARTESIAN_POINT ( 'NONE',  ( -53.69922212598976330, 14.03253136708217497, 46.95523010548632215 ) ) ;
#875 = EDGE_CURVE ( 'NONE', #864, #134, #435, .T. ) ;
#876 = CARTESIAN_POINT ( 'NONE',  ( -70.69922212598976330, -23.26746863291782574, 40.80523010548631646 ) ) ;
#877 = CARTESIAN_POINT ( 'NONE',  ( -52.94922212598976330, 13.28253136708217674, 41.80523010548631646 ) ) ;
#878 = APPLICATION_CONTEXT ( 'automotive_design' ) ;
#879 = EDGE_LOOP ( 'NONE', ( #829, #1281, #967, #294, #854 ) ) ;
#880 = VERTEX_POINT ( 'NONE', #286 ) ;
#881 = EDGE_CURVE ( 'NONE', #143, #893, #1222, .T. ) ;
#882 = CARTESIAN_POINT ( 'NONE',  ( -34.69922212598977040, -23.26746863291782574, 40.80523010548631646 ) ) ;
#883 = AXIS2_PLACEMENT_3D ( 'NONE', #780, #890, #785 ) ;
#884 = CARTESIAN_POINT ( 'NONE',  ( -51.69922212598976330, -4.267468632917822191, 29.40523010548631788 ) ) ;
#885 = LINE ( 'NONE', #876, #749 ) ;
#886 = VERTEX_POINT ( 'NONE', #206 ) ;
#887 = CIRCLE ( 'NONE', #1184, 5.999999999999998224 ) ;
#888 = DIRECTION ( 'NONE',  ( 0.000000000000000000, 0.000000000000000000, -1.000000000000000000 ) ) ;
#889 = LINE ( 'NONE', #1283, #283 ) ;
#890 = DIRECTION ( 'NONE',  ( 0.000000000000000000, 0.000000000000000000, -1.000000000000000000 ) ) ;
#891 = FACE_OUTER_BOUND ( 'NONE', #741, .T. ) ;
#892 = AXIS2_PLACEMENT_3D ( 'NONE', #981, #888, #676 ) ;
#893 = VERTEX_POINT ( 'NONE', #1199 ) ;
#894 = DIRECTION ( 'NONE',  ( 0.000000000000000000, 0.000000000000000000, -1.000000000000000000 ) ) ;
#895 = DIRECTION ( 'NONE',  ( -0.000000000000000000, -0.000000000000000000, 1.000000000000000000 ) ) ;
#896 = ORIENTED_EDGE ( 'NONE', *, *, #618, .T. ) ;
#897 = EDGE_LOOP ( 'NONE', ( #621, #682, #1261, #1125 ) ) ;
#898 = ADVANCED_FACE ( 'NONE', ( #1286 ), #733, .F. ) ;
#899 = CARTESIAN_POINT ( 'NONE',  ( -59.82422212598976330, 3.857531367082177809, 29.40523010548631788 ) ) ;
#900 = EDGE_CURVE ( 'NONE', #1258, #1113, #949, .T. ) ;
#901 = AXIS2_PLACEMENT_3D ( 'NONE', #1267, #1062, #958 ) ;
#902 = DIRECTION ( 'NONE',  ( -0.000000000000000000, -0.000000000000000000, -1.000000000000000000 ) ) ;
#903 = LINE ( 'NONE', #155, #377 ) ;
#904 = DIRECTION ( 'NONE',  ( -0.000000000000000000, -1.000000000000000000, -0.000000000000000000 ) ) ;
#905 = PRESENTATION_STYLE_ASSIGNMENT (( #1251 ) ) ;
#906 = EDGE_CURVE ( 'NONE', #1116, #1102, #518, .T. ) ;
#907 = CARTESIAN_POINT ( 'NONE',  ( -43.57422212598976330, 3.857531367082177809, 29.40523010548631788 ) ) ;
#908 = ORIENTED_EDGE ( 'NONE', *, *, #466, .F. ) ;
#909 = AXIS2_PLACEMENT_3D ( 'NONE', #671, #783, #281 ) ;
#910 = ORIENTED_EDGE ( 'NONE', *, *, #1072, .T. ) ;
#911 = PLANE ( 'NONE',  #353 ) ;
#912 = DIRECTION ( 'NONE',  ( 0.000000000000000000, -1.000000000000000000, 0.000000000000000000 ) ) ;
#913 = ORIENTED_EDGE ( 'NONE', *, *, #799, .F. ) ;
#914 = EDGE_CURVE ( 'NONE', #1113, #1166, #244, .T. ) ;
#915 = PLANE ( 'NONE',  #179 ) ;
#916 = UNCERTAINTY_MEASURE_WITH_UNIT (LENGTH_MEASURE( 1.000000000000000082E-05 ), #1006, 'distance_accuracy_value', 'NONE');
#917 = CARTESIAN_POINT ( 'NONE',  ( -32.69922212598977040, -21.26746863291782219, 40.80523010548631646 ) ) ;
#918 = ORIENTED_EDGE ( 'NONE', *, *, #186, .T. ) ;
#919 = EDGE_CURVE ( 'NONE', #1101, #1219, #1268, .T. ) ;
#920 = CARTESIAN_POINT ( 'NONE',  ( -68.44922212598976330, -21.31746863291782645, 40.80523010548631646 ) ) ;
#921 = CARTESIAN_POINT ( 'NONE',  ( -68.69922212598976330, -23.26746863291782574, 40.80523010548631646 ) ) ;
#922 = AXIS2_PLACEMENT_3D ( 'NONE', #956, #46, #1224 ) ;
#923 = ORIENTED_EDGE ( 'NONE', *, *, #14, .F. ) ;
#924 = EDGE_LOOP ( 'NONE', ( #2, #539, #598, #979 ) ) ;
#925 = CARTESIAN_POINT ( 'NONE',  ( -53.69922212598976330, 14.03253136708217497, 40.80523010548631646 ) ) ;
#926 = ORIENTED_EDGE ( 'NONE', *, *, #209, .T. ) ;
#927 = DIRECTION ( 'NONE',  ( 0.000000000000000000, 1.000000000000000000, 0.000000000000000000 ) ) ;
#928 = FACE_OUTER_BOUND ( 'NONE', #252, .T. ) ;
#929 = EDGE_CURVE ( 'NONE', #374, #54, #457, .T. ) ;
#930 = VECTOR ( 'NONE', #409, 1000.000000000000000 ) ;
#931 = DIRECTION ( 'NONE',  ( -1.000000000000000000, 0.000000000000000000, 0.000000000000000000 ) ) ;
#932 = FACE_BOUND ( 'NONE', #994, .T. ) ;
#933 = VECTOR ( 'NONE', #316, 1000.000000000000000 ) ;
#934 = LINE ( 'NONE', #99, #300 ) ;
#935 = LINE ( 'NONE', #1073, #549 ) ;
#936 = PLANE ( 'NONE',  #446 ) ;
#937 = VERTEX_POINT ( 'NONE', #218 ) ;
#938 = EDGE_CURVE ( 'NONE', #288, #1111, #1149, .T. ) ;
#939 = PRODUCT ( 'SUBCam', 'SUBCam', '', ( #587 ) ) ;
#940 = VERTEX_POINT ( 'NONE', #925 ) ;
#941 = EDGE_CURVE ( 'NONE', #422, #668, #720, .T. ) ;
#942 = CARTESIAN_POINT ( 'NONE',  ( -33.89922212598975904, -21.31746863291782645, 40.80523010548631646 ) ) ;
#943 = CARTESIAN_POINT ( 'NONE',  ( -51.69922212598976330, -4.267468632917822191, 40.80523010548631646 ) ) ;
#944 = ORIENTED_EDGE ( 'NONE', *, *, #295, .T. ) ;
#945 = FACE_BOUND ( 'NONE', #988, .T. ) ;
#946 = DIRECTION ( 'NONE',  ( -0.000000000000000000, 0.000000000000000000, -1.000000000000000000 ) ) ;
#947 = DIRECTION ( 'NONE',  ( -0.000000000000000000, -0.000000000000000000, -1.000000000000000000 ) ) ;
#948 = LINE ( 'NONE', #665, #135 ) ;
#949 = CIRCLE ( 'NONE', #613, 1.050000000000002265 ) ;
#950 = EDGE_CURVE ( 'NONE', #258, #1166, #673, .T. ) ;
#951 = VECTOR ( 'NONE', #927, 1000.000000000000000 ) ;
#952 = AXIS2_PLACEMENT_3D ( 'NONE', #651, #57, #359 ) ;
#953 = DIRECTION ( 'NONE',  ( 1.000000000000000000, 0.000000000000000000, 0.000000000000000000 ) ) ;
#954 = CARTESIAN_POINT ( 'NONE',  ( -43.57422212598976330, 3.857531367082177809, 29.40523010548631788 ) ) ;
#955 = ORIENTED_EDGE ( 'NONE', *, *, #603, .F. ) ;
#956 = CARTESIAN_POINT ( 'NONE',  ( -51.69922212598976330, -4.267468632917822191, 41.80523010548631646 ) ) ;
#957 = ORIENTED_EDGE ( 'NONE', *, *, #1148, .T. ) ;
#958 = DIRECTION ( 'NONE',  ( -1.000000000000000000, 0.000000000000000000, 0.000000000000000000 ) ) ;
#959 = ORIENTED_EDGE ( 'NONE', *, *, #929, .T. ) ;
#960 = CARTESIAN_POINT ( 'NONE',  ( -43.69922212598977040, 9.332531367082173901, 40.80523010548631646 ) ) ;
#961 = VERTEX_POINT ( 'NONE', #210 ) ;
#962 = ADVANCED_FACE ( 'NONE', ( #1179 ), #522, .F. ) ;
#963 = ORIENTED_EDGE ( 'NONE', *, *, #268, .T. ) ;
#964 = EDGE_CURVE ( 'NONE', #886, #701, #242, .T. ) ;
#965 = DIRECTION ( 'NONE',  ( -0.000000000000000000, -1.000000000000000000, -0.000000000000000000 ) ) ;
#966 = DIRECTION ( 'NONE',  ( -0.000000000000000000, -0.000000000000000000, -1.000000000000000000 ) ) ;
#967 = ORIENTED_EDGE ( 'NONE', *, *, #790, .T. ) ;
#968 = LINE ( 'NONE', #562, #845 ) ;
#969 = CARTESIAN_POINT ( 'NONE',  ( -68.44922212598976330, -21.31746863291782645, 37.20523010548632215 ) ) ;
#970 = CARTESIAN_POINT ( 'NONE',  ( -70.69922212598976330, -23.26746863291782574, 40.80523010548631646 ) ) ;
#971 = FACE_OUTER_BOUND ( 'NONE', #174, .T. ) ;
#972 = VECTOR ( 'NONE', #617, 1000.000000000000000 ) ;
#973 = DIRECTION ( 'NONE',  ( 1.000000000000000000, 0.000000000000000000, -0.000000000000000000 ) ) ;
#974 = DIRECTION ( 'NONE',  ( 0.000000000000000000, 1.000000000000000000, 0.000000000000000000 ) ) ;
#975 = AXIS2_PLACEMENT_3D ( 'NONE', #601, #195, #606 ) ;
#976 = ORIENTED_EDGE ( 'NONE', *, *, #309, .F. ) ;
#977 = DIRECTION ( 'NONE',  ( -0.000000000000000000, 0.000000000000000000, -1.000000000000000000 ) ) ;
#978 = EDGE_CURVE ( 'NONE', #1040, #796, #615, .T. ) ;
#979 = ORIENTED_EDGE ( 'NONE', *, *, #361, .T. ) ;
#980 = AXIS2_PLACEMENT_3D ( 'NONE', #15, #321, #1209 ) ;
#981 = CARTESIAN_POINT ( 'NONE',  ( -34.94922212598976330, 12.78253136708217319, 40.80523010548631646 ) ) ;
#982 = DIRECTION ( 'NONE',  ( 0.000000000000000000, 1.000000000000000000, 0.000000000000000000 ) ) ;
#983 = CIRCLE ( 'NONE', #1112, 1.050000000000002265 ) ;
#984 = CIRCLE ( 'NONE', #1034, 8.125000000000000000 ) ;
#985 = DIRECTION ( 'NONE',  ( -0.000000000000000000, -0.000000000000000000, -1.000000000000000000 ) ) ;
#986 = CIRCLE ( 'NONE', #543, 5.999999999999998224 ) ;
#987 =( LENGTH_UNIT ( ) NAMED_UNIT ( * ) SI_UNIT ( .MILLI., .METRE. ) );
#988 = EDGE_LOOP ( 'NONE', ( #597, #93 ) ) ;
#989 = DIRECTION ( 'NONE',  ( -1.000000000000000000, 0.000000000000000000, 0.000000000000000000 ) ) ;
#990 = EDGE_CURVE ( 'NONE', #1144, #1173, #84, .T. ) ;
#991 = VERTEX_POINT ( 'NONE', #1118 ) ;
#992 = SURFACE_STYLE_USAGE ( .BOTH. , #485 ) ;
#993 = CIRCLE ( 'NONE', #1216, 1.050000000000009148 ) ;
#994 = EDGE_LOOP ( 'NONE', ( #516, #128 ) ) ;
#995 = LINE ( 'NONE', #1152, #719 ) ;
#996 = CARTESIAN_POINT ( 'NONE',  ( -68.69922212598976330, 12.73253136708217248, 40.80523010548631646 ) ) ;
#997 = CIRCLE ( 'NONE', #892, 1.050000000000002265 ) ;
#998 = EDGE_CURVE ( 'NONE', #207, #1002, #404, .T. ) ;
#999 = CARTESIAN_POINT ( 'NONE',  ( -43.57422212598976330, -12.39246863291782219, 29.40523010548631788 ) ) ;
#1000 = CARTESIAN_POINT ( 'NONE',  ( -52.94922212598976330, 10.08253136708217212, 41.80523010548631646 ) ) ;
#1001 = AXIS2_PLACEMENT_3D ( 'NONE', #234, #640, #870 ) ;
#1002 = VERTEX_POINT ( 'NONE', #405 ) ;
#1003 = ORIENTED_EDGE ( 'NONE', *, *, #990, .F. ) ;
#1004 = ORIENTED_EDGE ( 'NONE', *, *, #466, .T. ) ;
#1005 = EDGE_CURVE ( 'NONE', #796, #1040, #1120, .T. ) ;
#1006 =( LENGTH_UNIT ( ) NAMED_UNIT ( * ) SI_UNIT ( .MILLI., .METRE. ) );
#1007 = LINE ( 'NONE', #611, #705 ) ;
#1008 = DIRECTION ( 'NONE',  ( -0.000000000000000000, -1.000000000000000000, -0.000000000000000000 ) ) ;
#1009 = DIRECTION ( 'NONE',  ( -1.000000000000000000, 0.000000000000000000, 0.000000000000000000 ) ) ;
#1010 = ORIENTED_EDGE ( 'NONE', *, *, #574, .T. ) ;
#1011 = ADVANCED_FACE ( 'NONE', ( #847 ), #536, .F. ) ;
#1012 = EDGE_CURVE ( 'NONE', #1002, #701, #41, .T. ) ;
#1013 = CARTESIAN_POINT ( 'NONE',  ( -57.69922212598976330, -4.267468632917822191, 14.40523010548631966 ) ) ;
#1014 = DIRECTION ( 'NONE',  ( 1.000000000000000000, -0.000000000000000000, 0.000000000000000000 ) ) ;
#1015 = AXIS2_PLACEMENT_3D ( 'NONE', #920, #823, #423 ) ;
#1016 = DIRECTION ( 'NONE',  ( 1.000000000000000000, 0.000000000000000000, 0.000000000000000000 ) ) ;
#1017 = CARTESIAN_POINT ( 'NONE',  ( -69.49922212598977467, 12.78253136708217319, 40.80523010548631646 ) ) ;
#1018 = ORIENTED_EDGE ( 'NONE', *, *, #319, .T. ) ;
#1019 = EDGE_CURVE ( 'NONE', #961, #1127, #312, .T. ) ;
#1020 = VECTOR ( 'NONE', #311, 1000.000000000000000 ) ;
#1021 = FACE_OUTER_BOUND ( 'NONE', #827, .T. ) ;
#1022 = LINE ( 'NONE', #560, #723 ) ;
#1023 = DIRECTION ( 'NONE',  ( -0.000000000000000000, -0.000000000000000000, -1.000000000000000000 ) ) ;
#1024 = DIRECTION ( 'NONE',  ( 0.000000000000000000, 0.000000000000000000, -1.000000000000000000 ) ) ;
#1025 = DIRECTION ( 'NONE',  ( 1.000000000000000000, 0.000000000000000000, 0.000000000000000000 ) ) ;
#1026 = EDGE_LOOP ( 'NONE', ( #1196, #797 ) ) ;
#1027 = DIRECTION ( 'NONE',  ( 0.000000000000000000, -1.000000000000000000, 0.000000000000000000 ) ) ;
#1028 = ORIENTED_EDGE ( 'NONE', *, *, #998, .F. ) ;
#1029 = CARTESIAN_POINT ( 'NONE',  ( -52.94922212598976330, 13.28253136708217674, 41.80523010548631646 ) ) ;
#1030 = FACE_BOUND ( 'NONE', #313, .T. ) ;
#1031 = EDGE_CURVE ( 'NONE', #961, #1032, #580, .T. ) ;
#1032 = VERTEX_POINT ( 'NONE', #729 ) ;
#1033 = LINE ( 'NONE', #199, #771 ) ;
#1034 = AXIS2_PLACEMENT_3D ( 'NONE', #703, #1279, #696 ) ;
#1035 = LINE ( 'NONE', #318, #849 ) ;
#1036 = VECTOR ( 'NONE', #262, 1000.000000000000000 ) ;
#1037 = FACE_OUTER_BOUND ( 'NONE', #1141, .T. ) ;
#1038 = DIRECTION ( 'NONE',  ( 0.000000000000000000, 0.000000000000000000, -1.000000000000000000 ) ) ;
#1039 = ORIENTED_EDGE ( 'NONE', *, *, #670, .F. ) ;
#1040 = VERTEX_POINT ( 'NONE', #942 ) ;
#1041 = EDGE_LOOP ( 'NONE', ( #416, #726, #1004, #273 ) ) ;
#1042 = VECTOR ( 'NONE', #982, 1000.000000000000000 ) ;
#1043 = LINE ( 'NONE', #836, #484 ) ;
#1044 = DIRECTION ( 'NONE',  ( 0.000000000000000000, 0.000000000000000000, -1.000000000000000000 ) ) ;
#1045 = VERTEX_POINT ( 'NONE', #434 ) ;
#1046 = EDGE_CURVE ( 'NONE', #806, #386, #1043, .T. ) ;
#1047 = VECTOR ( 'NONE', #133, 1000.000000000000000 ) ;
#1048 = CARTESIAN_POINT ( 'NONE',  ( -57.69922212598976330, -4.267468632917822191, 13.40523010548631788 ) ) ;
#1049 = CYLINDRICAL_SURFACE ( 'NONE', #1100, 1.050000000000002265 ) ;
#1050 = AXIS2_PLACEMENT_3D ( 'NONE', #529, #634, #340 ) ;
#1051 = CARTESIAN_POINT ( 'NONE',  ( -34.69922212598977040, 12.73253136708217248, 40.80523010548631646 ) ) ;
#1052 = ORIENTED_EDGE ( 'NONE', *, *, #581, .F. ) ;
#1053 = DIRECTION ( 'NONE',  ( -1.000000000000000000, 0.000000000000000000, 0.000000000000000000 ) ) ;
#1054 = ADVANCED_FACE ( 'NONE', ( #68 ), #56, .F. ) ;
#1055 = ORIENTED_EDGE ( 'NONE', *, *, #707, .F. ) ;
#1056 = CARTESIAN_POINT ( 'NONE',  ( -70.69922212598976330, -21.26746863291782219, 40.80523010548631646 ) ) ;
#1057 = EDGE_LOOP ( 'NONE', ( #223, #656, #188, #355 ) ) ;
#1058 = AXIS2_PLACEMENT_3D ( 'NONE', #582, #370, #989 ) ;
#1059 = CARTESIAN_POINT ( 'NONE',  ( -43.57422212598976330, -12.39246863291782219, 29.40523010548631788 ) ) ;
#1060 = ORIENTED_EDGE ( 'NONE', *, *, #505, .T. ) ;
#1061 = ADVANCED_FACE ( 'NONE', ( #298 ), #655, .F. ) ;
#1062 = DIRECTION ( 'NONE',  ( 0.000000000000000000, 0.000000000000000000, -1.000000000000000000 ) ) ;
#1063 = ORIENTED_EDGE ( 'NONE', *, *, #277, .F. ) ;
#1064 = CARTESIAN_POINT ( 'NONE',  ( -43.57422212598976330, -4.267468632917822191, 29.40523010548631788 ) ) ;
#1065 = DIRECTION ( 'NONE',  ( 0.000000000000000000, 0.000000000000000000, 1.000000000000000000 ) ) ;
#1066 = DIRECTION ( 'NONE',  ( -0.000000000000000000, -0.000000000000000000, 1.000000000000000000 ) ) ;
#1067 = LINE ( 'NONE', #1276, #282 ) ;
#1068 = CARTESIAN_POINT ( 'NONE',  ( -53.69922212598976330, 9.332531367082173901, 46.95523010548632215 ) ) ;
#1069 = EDGE_CURVE ( 'NONE', #937, #1045, #1206, .T. ) ;
#1070 = VERTEX_POINT ( 'NONE', #337 ) ;
#1071 = ORIENTED_EDGE ( 'NONE', *, *, #95, .F. ) ;
#1072 = EDGE_CURVE ( 'NONE', #864, #937, #117, .T. ) ;
#1073 = CARTESIAN_POINT ( 'NONE',  ( -32.69922212598977040, 12.73253136708217248, 40.80523010548631646 ) ) ;
#1074 = EDGE_LOOP ( 'NONE', ( #149, #233 ) ) ;
#1075 = EDGE_LOOP ( 'NONE', ( #620, #274 ) ) ;
#1076 = FACE_BOUND ( 'NONE', #396, .T. ) ;
#1077 = ADVANCED_FACE ( 'NONE', ( #421 ), #1132, .F. ) ;
#1078 = ORIENTED_EDGE ( 'NONE', *, *, #373, .F. ) ;
#1079 = APPLICATION_PROTOCOL_DEFINITION ( 'draft international standard', 'automotive_design', 1998, #878 ) ;
#1080 = CYLINDRICAL_SURFACE ( 'NONE', #828, 8.125000000000000000 ) ;
#1081 = CARTESIAN_POINT ( 'NONE',  ( -68.44922212598976330, -21.31746863291782645, 40.80523010548631646 ) ) ;
#1082 = AXIS2_PLACEMENT_3D ( 'NONE', #166, #1160, #571 ) ;
#1083 = ADVANCED_FACE ( 'NONE', ( #928 ), #936, .F. ) ;
#1084 = DIRECTION ( 'NONE',  ( -1.000000000000000000, -0.000000000000000000, -0.000000000000000000 ) ) ;
#1085 = CARTESIAN_POINT ( 'NONE',  ( -70.69922212598976330, -23.26746863291782574, 37.20523010548632215 ) ) ;
#1086 = ORIENTED_EDGE ( 'NONE', *, *, #1117, .T. ) ;
#1087 = EDGE_CURVE ( 'NONE', #1219, #880, #636, .T. ) ;
#1088 = ORIENTED_EDGE ( 'NONE', *, *, #875, .F. ) ;
#1089 = ADVANCED_FACE ( 'NONE', ( #579 ), #344, .F. ) ;
#1090 = DIRECTION ( 'NONE',  ( 0.000000000000000000, 1.000000000000000000, 0.000000000000000000 ) ) ;
#1091 = VECTOR ( 'NONE', #947, 1000.000000000000000 ) ;
#1092 = CARTESIAN_POINT ( 'NONE',  ( -32.69922212598977040, 12.73253136708217248, 40.80523010548631646 ) ) ;
#1093 = VECTOR ( 'NONE', #8, 1000.000000000000000 ) ;
#1094 = LINE ( 'NONE', #85, #835 ) ;
#1095 = FACE_OUTER_BOUND ( 'NONE', #292, .T. ) ;
#1096 = ADVANCED_FACE ( 'NONE', ( #388 ), #100, .T. ) ;
#1097 = EDGE_CURVE ( 'NONE', #1032, #806, #1191, .T. ) ;
#1098 = CARTESIAN_POINT ( 'NONE',  ( -52.94922212598976330, 10.08253136708217212, 46.95523010548632215 ) ) ;
#1099 = DIRECTION ( 'NONE',  ( -1.000000000000000000, 0.000000000000000000, 0.000000000000000000 ) ) ;
#1100 = AXIS2_PLACEMENT_3D ( 'NONE', #1153, #474, #787 ) ;
#1101 = VERTEX_POINT ( 'NONE', #1250 ) ;
#1102 = VERTEX_POINT ( 'NONE', #468 ) ;
#1103 = UNCERTAINTY_MEASURE_WITH_UNIT (LENGTH_MEASURE( 1.000000000000000082E-05 ), #70, 'distance_accuracy_value', 'NONE');
#1104 = ORIENTED_EDGE ( 'NONE', *, *, #444, .F. ) ;
#1105 = CARTESIAN_POINT ( 'NONE',  ( -43.57422212598976330, -12.39246863291782219, 37.20523010548632215 ) ) ;
#1106 = CARTESIAN_POINT ( 'NONE',  ( -51.69922212598976330, -4.267468632917822191, 13.40523010548631788 ) ) ;
#1107 = CARTESIAN_POINT ( 'NONE',  ( -68.69922212598976330, -21.26746863291782219, 40.80523010548631646 ) ) ;
#1108 = DIRECTION ( 'NONE',  ( 0.000000000000000000, 0.000000000000000000, -1.000000000000000000 ) ) ;
#1109 = VECTOR ( 'NONE', #18, 1000.000000000000000 ) ;
#1110 = FACE_OUTER_BOUND ( 'NONE', #879, .T. ) ;
#1111 = VERTEX_POINT ( 'NONE', #1048 ) ;
#1112 = AXIS2_PLACEMENT_3D ( 'NONE', #1142, #977, #460 ) ;
#1113 = VERTEX_POINT ( 'NONE', #255 ) ;
#1114 = DIRECTION ( 'NONE',  ( -1.000000000000000000, 0.000000000000000000, 0.000000000000000000 ) ) ;
#1115 = VERTEX_POINT ( 'NONE', #1146 ) ;
#1116 = VERTEX_POINT ( 'NONE', #150 ) ;
#1117 = EDGE_CURVE ( 'NONE', #759, #1219, #968, .T. ) ;
#1118 = CARTESIAN_POINT ( 'NONE',  ( -33.89922212598975904, -21.31746863291782645, 37.20523010548632215 ) ) ;
#1119 = PLANE ( 'NONE',  #515 ) ;
#1120 = CIRCLE ( 'NONE', #784, 1.050000000000002265 ) ;
#1121 = FACE_OUTER_BOUND ( 'NONE', #1280, .T. ) ;
#1122 = CARTESIAN_POINT ( 'NONE',  ( -68.44922212598976330, 12.78253136708217319, 40.80523010548631646 ) ) ;
#1123 = CIRCLE ( 'NONE', #909, 1.050000000000002265 ) ;
#1124 = DIRECTION ( 'NONE',  ( -1.000000000000000000, 0.000000000000000000, 0.000000000000000000 ) ) ;
#1125 = ORIENTED_EDGE ( 'NONE', *, *, #488, .T. ) ;
#1126 = CARTESIAN_POINT ( 'NONE',  ( -34.69922212598977040, 14.73253136708217426, 40.80523010548631646 ) ) ;
#1127 = VERTEX_POINT ( 'NONE', #661 ) ;
#1128 = DIRECTION ( 'NONE',  ( -1.000000000000000000, 0.000000000000000000, 0.000000000000000000 ) ) ;
#1129 = ORIENTED_EDGE ( 'NONE', *, *, #1131, .F. ) ;
#1130 = DIRECTION ( 'NONE',  ( 0.000000000000000000, 0.000000000000000000, -1.000000000000000000 ) ) ;
#1131 = EDGE_CURVE ( 'NONE', #567, #260, #948, .T. ) ;
#1132 = PLANE ( 'NONE',  #922 ) ;
#1133 = STYLED_ITEM ( 'NONE', ( #357 ), #1134 ) ;
#1134 = ADVANCED_BREP_SHAPE_REPRESENTATION ( 'SUBCam', ( #221, #322 ), #537 ) ;
#1135 = DIRECTION ( 'NONE',  ( -0.000000000000000000, 0.000000000000000000, -1.000000000000000000 ) ) ;
#1136 = LINE ( 'NONE', #804, #691 ) ;
#1137 = CARTESIAN_POINT ( 'NONE',  ( -52.94922212598976330, 10.08253136708217212, 41.80523010548631646 ) ) ;
#1138 = DIRECTION ( 'NONE',  ( 0.000000000000000000, -0.000000000000000000, 1.000000000000000000 ) ) ;
#1139 = ORIENTED_EDGE ( 'NONE', *, *, #938, .T. ) ;
#1140 = CARTESIAN_POINT ( 'NONE',  ( -43.57422212598976330, -12.39246863291782219, 29.40523010548631788 ) ) ;
#1141 = EDGE_LOOP ( 'NONE', ( #443, #1018, #382, #124 ) ) ;
#1142 = CARTESIAN_POINT ( 'NONE',  ( -34.94922212598976330, -21.31746863291782645, 37.20523010548632215 ) ) ;
#1143 = ORIENTED_EDGE ( 'NONE', *, *, #426, .T. ) ;
#1144 = VERTEX_POINT ( 'NONE', #757 ) ;
#1145 = VERTEX_POINT ( 'NONE', #1140 ) ;
#1146 = CARTESIAN_POINT ( 'NONE',  ( -68.69922212598976330, 14.73253136708217426, 37.20523010548632215 ) ) ;
#1147 = PLANE ( 'NONE',  #1269 ) ;
#1148 = EDGE_CURVE ( 'NONE', #1255, #143, #816, .T. ) ;
#1149 = LINE ( 'NONE', #1013, #832 ) ;
#1150 = PLANE ( 'NONE',  #214 ) ;
#1151 = AXIS2_PLACEMENT_3D ( 'NONE', #753, #261, #1065 ) ;
#1152 = CARTESIAN_POINT ( 'NONE',  ( -43.57422212598976330, -12.39246863291782219, 37.20523010548632215 ) ) ;
#1153 = CARTESIAN_POINT ( 'NONE',  ( -34.94922212598976330, 12.78253136708217319, 40.80523010548631646 ) ) ;
#1154 = ORIENTED_EDGE ( 'NONE', *, *, #1069, .T. ) ;
#1155 = CARTESIAN_POINT ( 'NONE',  ( -52.94922212598976330, 10.08253136708217212, 46.95523010548632215 ) ) ;
#1156 = ORIENTED_EDGE ( 'NONE', *, *, #1131, .T. ) ;
#1157 = EDGE_CURVE ( 'NONE', #880, #169, #885, .T. ) ;
#1158 = PLANE ( 'NONE',  #365 ) ;
#1159 = CARTESIAN_POINT ( 'NONE',  ( -59.82422212598976330, -12.39246863291782219, 29.40523010548631788 ) ) ;
#1160 = DIRECTION ( 'NONE',  ( -0.000000000000000000, -0.000000000000000000, 1.000000000000000000 ) ) ;
#1161 = ADVANCED_FACE ( 'NONE', ( #341 ), #1150, .F. ) ;
#1162 = DIRECTION ( 'NONE',  ( 0.000000000000000000, 0.000000000000000000, 1.000000000000000000 ) ) ;
#1163 = CARTESIAN_POINT ( 'NONE',  ( -35.99922212598976756, -21.31746863291782645, 37.20523010548632215 ) ) ;
#1164 =( GEOMETRIC_REPRESENTATION_CONTEXT ( 3 ) GLOBAL_UNCERTAINTY_ASSIGNED_CONTEXT ( ( #861 ) ) GLOBAL_UNIT_ASSIGNED_CONTEXT ( ( #987, #479, #175 ) ) REPRESENTATION_CONTEXT ( 'NONE', 'WORKASPACE' ) );
#1165 = CARTESIAN_POINT ( 'NONE',  ( -44.44922212598976330, 13.28253136708217674, 46.95523010548632215 ) ) ;
#1166 = VERTEX_POINT ( 'NONE', #266 ) ;
#1167 = CARTESIAN_POINT ( 'NONE',  ( 0.000000000000000000, 0.000000000000000000, 0.000000000000000000 ) ) ;
#1168 = EDGE_LOOP ( 'NONE', ( #1063, #550, #147, #761 ) ) ;
#1169 = CARTESIAN_POINT ( 'NONE',  ( -67.39922212598975193, 12.78253136708217319, 40.80523010548631646 ) ) ;
#1170 = EDGE_CURVE ( 'NONE', #893, #725, #1265, .T. ) ;
#1171 = ORIENTED_EDGE ( 'NONE', *, *, #164, .T. ) ;
#1172 = DIRECTION ( 'NONE',  ( -1.000000000000000000, 0.000000000000000000, 0.000000000000000000 ) ) ;
#1173 = VERTEX_POINT ( 'NONE', #55 ) ;
#1174 = AXIS2_PLACEMENT_3D ( 'NONE', #432, #1130, #831 ) ;
#1175 = CARTESIAN_POINT ( 'NONE',  ( -33.89922212598975904, 12.78253136708217319, 40.80523010548631646 ) ) ;
#1176 = ORIENTED_EDGE ( 'NONE', *, *, #194, .F. ) ;
#1177 = CARTESIAN_POINT ( 'NONE',  ( -34.69922212598977040, -23.26746863291782574, 37.20523010548632215 ) ) ;
#1178 = CARTESIAN_POINT ( 'NONE',  ( -67.39922212598975193, -21.31746863291782645, 37.20523010548632215 ) ) ;
#1179 = FACE_OUTER_BOUND ( 'NONE', #607, .T. ) ;
#1180 = DIRECTION ( 'NONE',  ( 1.000000000000000000, 0.000000000000000000, 0.000000000000000000 ) ) ;
#1181 = ADVANCED_FACE ( 'NONE', ( #240 ), #249, .F. ) ;
#1182 = CARTESIAN_POINT ( 'NONE',  ( -43.57422212598976330, -12.39246863291782219, 29.40523010548631788 ) ) ;
#1183 = LINE ( 'NONE', #921, #1093 ) ;
#1184 = AXIS2_PLACEMENT_3D ( 'NONE', #612, #815, #1009 ) ;
#1185 = ORIENTED_EDGE ( 'NONE', *, *, #914, .T. ) ;
#1186 = DIRECTION ( 'NONE',  ( -0.000000000000000000, -0.000000000000000000, 1.000000000000000000 ) ) ;
#1187 = ORIENTED_EDGE ( 'NONE', *, *, #782, .T. ) ;
#1188 = DIRECTION ( 'NONE',  ( -1.000000000000000000, 0.000000000000000000, 0.000000000000000000 ) ) ;
#1189 = ORIENTED_EDGE ( 'NONE', *, *, #83, .F. ) ;
#1190 = ORIENTED_EDGE ( 'NONE', *, *, #941, .F. ) ;
#1191 = LINE ( 'NONE', #1159, #653 ) ;
#1192 = CARTESIAN_POINT ( 'NONE',  ( -70.69922212598976330, 14.73253136708217426, 40.80523010548631646 ) ) ;
#1193 = DIRECTION ( 'NONE',  ( 0.000000000000000000, 0.000000000000000000, -1.000000000000000000 ) ) ;
#1194 = LINE ( 'NONE', #107, #706 ) ;
#1195 = DIRECTION ( 'NONE',  ( -0.000000000000000000, -0.000000000000000000, -1.000000000000000000 ) ) ;
#1196 = ORIENTED_EDGE ( 'NONE', *, *, #534, .T. ) ;
#1197 = PRESENTATION_LAYER_ASSIGNMENT (  '', '', ( #1133 ) ) ;
#1198 = EDGE_LOOP ( 'NONE', ( #744, #527, #202 ) ) ;
#1199 = CARTESIAN_POINT ( 'NONE',  ( -52.94922212598976330, 13.28253136708217674, 46.95523010548632215 ) ) ;
#1200 = CARTESIAN_POINT ( 'NONE',  ( -44.44922212598976330, 10.08253136708217212, 41.80523010548631646 ) ) ;
#1201 = ORIENTED_EDGE ( 'NONE', *, *, #418, .F. ) ;
#1202 = CARTESIAN_POINT ( 'NONE',  ( -70.69922212598976330, -23.26746863291782574, 37.20523010548632215 ) ) ;
#1203 = EDGE_LOOP ( 'NONE', ( #1187, #176, #123, #237, #528 ) ) ;
#1204 = PRESENTATION_LAYER_ASSIGNMENT (  '', '', ( #410 ) ) ;
#1205 = DIRECTION ( 'NONE',  ( 0.000000000000000000, 0.000000000000000000, -1.000000000000000000 ) ) ;
#1206 = CIRCLE ( 'NONE', #1050, 2.000000000000001776 ) ;
#1207 = CARTESIAN_POINT ( 'NONE',  ( -51.69922212598976330, -4.267468632917822191, 29.40523010548631788 ) ) ;
#1208 = VECTOR ( 'NONE', #786, 1000.000000000000000 ) ;
#1209 = DIRECTION ( 'NONE',  ( -1.000000000000000000, 0.000000000000000000, -0.000000000000000000 ) ) ;
#1210 = CIRCLE ( 'NONE', #952, 2.000000000000001776 ) ;
#1211 = LINE ( 'NONE', #1257, #490 ) ;
#1212 = EDGE_CURVE ( 'NONE', #1102, #271, #993, .T. ) ;
#1213 = ORIENTED_EDGE ( 'NONE', *, *, #1278, .F. ) ;
#1214 = DIRECTION ( 'NONE',  ( 1.000000000000000000, 0.000000000000000000, -0.000000000000000000 ) ) ;
#1215 = ORIENTED_EDGE ( 'NONE', *, *, #555, .T. ) ;
#1216 = AXIS2_PLACEMENT_3D ( 'NONE', #969, #154, #352 ) ;
#1217 = ORIENTED_EDGE ( 'NONE', *, *, #990, .T. ) ;
#1218 = ORIENTED_EDGE ( 'NONE', *, *, #1220, .F. ) ;
#1219 = VERTEX_POINT ( 'NONE', #1056 ) ;
#1220 = EDGE_CURVE ( 'NONE', #109, #1070, #152, .T. ) ;
#1221 = ORIENTED_EDGE ( 'NONE', *, *, #29, .F. ) ;
#1222 = LINE ( 'NONE', #7, #1020 ) ;
#1223 = DIRECTION ( 'NONE',  ( -0.000000000000000000, -0.000000000000000000, -1.000000000000000000 ) ) ;
#1224 = DIRECTION ( 'NONE',  ( -1.000000000000000000, 0.000000000000000000, -0.000000000000000000 ) ) ;
#1225 = ORIENTED_EDGE ( 'NONE', *, *, #1170, .F. ) ;
#1226 = CARTESIAN_POINT ( 'NONE',  ( -34.94922212598976330, -21.31746863291782645, 40.80523010548631646 ) ) ;
#1227 = PRODUCT_RELATED_PRODUCT_CATEGORY ( 'part', '', ( #939 ) ) ;
#1228 = ORIENTED_EDGE ( 'NONE', *, *, #1031, .T. ) ;
#1229 = DIRECTION ( 'NONE',  ( -1.000000000000000000, -0.000000000000000000, -0.000000000000000000 ) ) ;
#1230 = ORIENTED_EDGE ( 'NONE', *, *, #938, .F. ) ;
#1231 = ORIENTED_EDGE ( 'NONE', *, *, #1019, .T. ) ;
#1232 = CARTESIAN_POINT ( 'NONE',  ( -51.69922212598976330, -4.267468632917822191, 29.40523010548631788 ) ) ;
#1233 = EDGE_CURVE ( 'NONE', #205, #1145, #419, .T. ) ;
#1234 = DIRECTION ( 'NONE',  ( -0.000000000000000000, -0.000000000000000000, 1.000000000000000000 ) ) ;
#1235 = AXIS2_PLACEMENT_3D ( 'NONE', #1122, #430, #144 ) ;
#1236 = ORIENTED_EDGE ( 'NONE', *, *, #385, .F. ) ;
#1237 = DIRECTION ( 'NONE',  ( -1.000000000000000000, 0.000000000000000000, 0.000000000000000000 ) ) ;
#1238 = VECTOR ( 'NONE', #1066, 1000.000000000000000 ) ;
#1239 = VECTOR ( 'NONE', #489, 1000.000000000000000 ) ;
#1240 = CARTESIAN_POINT ( 'NONE',  ( -51.69922212598976330, -4.267468632917822191, 29.40523010548631788 ) ) ;
#1241 = ORIENTED_EDGE ( 'NONE', *, *, #19, .F. ) ;
#1242 = DIRECTION ( 'NONE',  ( 0.000000000000000000, 0.000000000000000000, -1.000000000000000000 ) ) ;
#1243 = DIRECTION ( 'NONE',  ( -1.000000000000000000, 0.000000000000000000, 0.000000000000000000 ) ) ;
#1244 = AXIS2_PLACEMENT_3D ( 'NONE', #996, #395, #187 ) ;
#1245 = CARTESIAN_POINT ( 'NONE',  ( -43.57422212598976330, -4.267468632917822191, 13.40523010548631788 ) ) ;
#1246 = EDGE_LOOP ( 'NONE', ( #1241, #34, #1228 ) ) ;
#1247 = CARTESIAN_POINT ( 'NONE',  ( -67.39922212598975193, 12.78253136708217319, 40.80523010548631646 ) ) ;
#1248 = ADVANCED_FACE ( 'NONE', ( #482, #686 ), #349, .F. ) ;
#1249 = ORIENTED_EDGE ( 'NONE', *, *, #679, .T. ) ;
#1250 = CARTESIAN_POINT ( 'NONE',  ( -70.69922212598976330, 12.73253136708217248, 40.80523010548631646 ) ) ;
#1251 = SURFACE_STYLE_USAGE ( .BOTH. , #161 ) ;
#1252 = EDGE_CURVE ( 'NONE', #1070, #51, #38, .T. ) ;
#1253 = LINE ( 'NONE', #662, #1036 ) ;
#1254 = DIRECTION ( 'NONE',  ( -1.000000000000000000, 0.000000000000000000, 0.000000000000000000 ) ) ;
#1255 = VERTEX_POINT ( 'NONE', #855 ) ;
#1256 = EDGE_CURVE ( 'NONE', #205, #114, #577, .T. ) ;
#1257 = CARTESIAN_POINT ( 'NONE',  ( -68.69922212598976330, 14.73253136708217426, 40.80523010548631646 ) ) ;
#1258 = VERTEX_POINT ( 'NONE', #1175 ) ;
#1259 = MECHANICAL_DESIGN_GEOMETRIC_PRESENTATION_REPRESENTATION (  '', ( #1133 ), #1164 ) ;
#1260 = VERTEX_POINT ( 'NONE', #1163 ) ;
#1261 = ORIENTED_EDGE ( 'NONE', *, *, #755, .F. ) ;
#1262 = CARTESIAN_POINT ( 'NONE',  ( -68.69922212598976330, 14.73253136708217426, 40.80523010548631646 ) ) ;
#1263 = ORIENTED_EDGE ( 'NONE', *, *, #881, .T. ) ;
#1264 = APPLICATION_PROTOCOL_DEFINITION ( 'draft international standard', 'automotive_design', 1998, #290 ) ;
#1265 = LINE ( 'NONE', #1155, #718 ) ;
#1266 = VECTOR ( 'NONE', #307, 1000.000000000000000 ) ;
#1267 = CARTESIAN_POINT ( 'NONE',  ( -68.69922212598976330, -21.26746863291782219, 37.20523010548632215 ) ) ;
#1268 = LINE ( 'NONE', #517, #933 ) ;
#1269 = AXIS2_PLACEMENT_3D ( 'NONE', #1240, #153, #973 ) ;
#1270 = VECTOR ( 'NONE', #196, 1000.000000000000000 ) ;
#1271 = PLANE ( 'NONE',  #883 ) ;
#1272 = DIRECTION ( 'NONE',  ( -0.000000000000000000, -0.000000000000000000, 1.000000000000000000 ) ) ;
#1273 = ORIENTED_EDGE ( 'NONE', *, *, #1252, .T. ) ;
#1274 = ADVANCED_FACE ( 'NONE', ( #238 ), #578, .F. ) ;
#1275 = CARTESIAN_POINT ( 'NONE',  ( -53.69922212598976330, 9.332531367082173901, 46.95523010548632215 ) ) ;
#1276 = CARTESIAN_POINT ( 'NONE',  ( -43.57422212598976330, -4.267468632917822191, 13.40523010548631788 ) ) ;
#1277 = ORIENTED_EDGE ( 'NONE', *, *, #36, .T. ) ;
#1278 = EDGE_CURVE ( 'NONE', #1127, #1144, #24, .T. ) ;
#1279 = DIRECTION ( 'NONE',  ( 0.000000000000000000, 0.000000000000000000, -1.000000000000000000 ) ) ;
#1280 = EDGE_LOOP ( 'NONE', ( #10, #401, #431, #811, #1231 ) ) ;
#1281 = ORIENTED_EDGE ( 'NONE', *, *, #259, .F. ) ;
#1282 = CARTESIAN_POINT ( 'NONE',  ( -44.44922212598976330, 13.28253136708217674, 41.80523010548631646 ) ) ;
#1283 = CARTESIAN_POINT ( 'NONE',  ( -53.69922212598976330, 9.332531367082173901, 40.80523010548631646 ) ) ;
#1284 = ORIENTED_EDGE ( 'NONE', *, *, #1072, .F. ) ;
#1285 = LINE ( 'NONE', #40, #626 ) ;
#1286 = FACE_OUTER_BOUND ( 'NONE', #1168, .T. ) ;
#1287 = DIRECTION ( 'NONE',  ( -1.000000000000000000, 0.000000000000000000, 0.000000000000000000 ) ) ;
#1288 = FACE_OUTER_BOUND ( 'NONE', #808, .T. ) ;
#1289 = DIRECTION ( 'NONE',  ( 1.000000000000000000, -0.000000000000000000, -0.000000000000000000 ) ) ;
#1290 = AXIS2_PLACEMENT_3D ( 'NONE', #1081, #483, #1172 ) ;
#1291 = ADVANCED_FACE ( 'NONE', ( #1076, #814, #1030, #945, #669, #798 ), #1271, .T. ) ;
#1292 = DIRECTION ( 'NONE',  ( -1.000000000000000000, 0.000000000000000000, 0.000000000000000000 ) ) ;
#1293 = ORIENTED_EDGE ( 'NONE', *, *, #1220, .T. ) ;
#1294 = ORIENTED_EDGE ( 'NONE', *, *, #402, .F. ) ;
ENDSEC;
END-ISO-10303-21;
